^F:\WINDOWS 10\RTR\RTR_3\RTR2020_CLASS_ASSIGNMENT\01_OPENGL\02_PP\01_WINDOWS\99_ASSIMP\LIB\ASSIMP-MASTER\CONTRIB\ZLIB\CMAKELISTS.TXT
C:\PROGRAM FILES\CMAKE\SHARE\CMAKE-3.23\MODULES\CHECKCSOURCECOMPILES.CMAKE
C:\PROGRAM FILES\CMAKE\SHARE\CMAKE-3.23\MODULES\CHECKFUNCTIONEXISTS.C
C:\PROGRAM FILES\CMAKE\SHARE\CMAKE-3.23\MODULES\CHECKFUNCTIONEXISTS.CMAKE
C:\PROGRAM FILES\CMAKE\SHARE\CMAKE-3.23\MODULES\CHECKINCLUDEFILE.C.IN
C:\PROGRAM FILES\CMAKE\SHARE\CMAKE-3.23\MODULES\CHECKINCLUDEFILE.CMAKE
C:\PROGRAM FILES\CMAKE\SHARE\CMAKE-3.23\MODULES\CHECKINCLUDEFILECXX.CMAKE
C:\PROGRAM FILES\CMAKE\SHARE\CMAKE-3.23\MODULES\CHECKTYPESIZE.C.IN
C:\PROGRAM FILES\CMAKE\SHARE\CMAKE-3.23\MODULES\CHECKTYPESIZE.CMAKE
C:\PROGRAM FILES\CMAKE\SHARE\CMAKE-3.23\MODULES\INTERNAL\CHECKSOURCECOMPILES.CMAKE
F:\WINDOWS 10\RTR\RTR_3\RTR2020_CLASS_ASSIGNMENT\01_OPENGL\02_PP\01_WINDOWS\99_ASSIMP\LIB\ASSIMP-MASTER\CMAKEFILES\CHECKTYPESIZE\OFF64_T.C
F:\WINDOWS 10\RTR\RTR_3\RTR2020_CLASS_ASSIGNMENT\01_OPENGL\02_PP\01_WINDOWS\99_ASSIMP\LIB\ASSIMP-MASTER\CONTRIB\ZLIB\ZCONF.H.CMAKEIN
F:\WINDOWS 10\RTR\RTR_3\RTR2020_CLASS_ASSIGNMENT\01_OPENGL\02_PP\01_WINDOWS\99_ASSIMP\LIB\ASSIMP-MASTER\CONTRIB\ZLIB\ZLIB.PC.CMAKEIN
