-- Merging decision tree log ---
manifest
ADDED from F:\Windows 10\RTR\RTR_3\RTR2020_Class_Assignment\01_OpenGL\02_PP\03_Android\51_HappyBirthdayTemplate\01_SOURCE_CODE\app\src\main\AndroidManifest.xml:2:1-19:12
INJECTED from F:\Windows 10\RTR\RTR_3\RTR2020_Class_Assignment\01_OpenGL\02_PP\03_Android\51_HappyBirthdayTemplate\01_SOURCE_CODE\app\src\main\AndroidManifest.xml:2:1-19:12
MERGED from [com.google.android.material:material:1.1.0] C:\Users\hritu\.gradle\caches\transforms-2\files-2.1\5027b08b6dae28f06478eb3944afe9b2\material-1.1.0\AndroidManifest.xml:17:1-24:12
MERGED from [androidx.appcompat:appcompat:1.1.0] C:\Users\hritu\.gradle\caches\transforms-2\files-2.1\f9ad3464551cf46253b772c9e55bac48\appcompat-1.1.0\AndroidManifest.xml:17:1-24:12
MERGED from [androidx.constraintlayout:constraintlayout:1.1.3] C:\Users\hritu\.gradle\caches\transforms-2\files-2.1\63162668b364c5becb51e138f81bf7b1\constraintlayout-1.1.3\AndroidManifest.xml:2:1-11:12
MERGED from [androidx.viewpager2:viewpager2:1.0.0] C:\Users\hritu\.gradle\caches\transforms-2\files-2.1\b280767b2985335a59d593544e4528f5\jetified-viewpager2-1.0.0\AndroidManifest.xml:17:1-24:12
MERGED from [androidx.fragment:fragment:1.1.0] C:\Users\hritu\.gradle\caches\transforms-2\files-2.1\fc36bc220953b865edf8e840a72b8115\fragment-1.1.0\AndroidManifest.xml:17:1-24:12
MERGED from [androidx.appcompat:appcompat-resources:1.1.0] C:\Users\hritu\.gradle\caches\transforms-2\files-2.1\cf733d91afbf2360189696891b5de5de\jetified-appcompat-resources-1.1.0\AndroidManifest.xml:17:1-24:12
MERGED from [androidx.drawerlayout:drawerlayout:1.0.0] C:\Users\hritu\.gradle\caches\transforms-2\files-2.1\0c6bd16d0682a277759770b4fc491f5b\drawerlayout-1.0.0\AndroidManifest.xml:17:1-22:12
MERGED from [androidx.coordinatorlayout:coordinatorlayout:1.1.0] C:\Users\hritu\.gradle\caches\transforms-2\files-2.1\0c23e228d112c659f595102e603080e0\coordinatorlayout-1.1.0\AndroidManifest.xml:17:1-24:12
MERGED from [androidx.transition:transition:1.2.0] C:\Users\hritu\.gradle\caches\transforms-2\files-2.1\1e10802eb534afda69445bd2891c515e\transition-1.2.0\AndroidManifest.xml:17:1-24:12
MERGED from [androidx.vectordrawable:vectordrawable-animated:1.1.0] C:\Users\hritu\.gradle\caches\transforms-2\files-2.1\bd6ac3050b5daab12f272515d69f4bd8\vectordrawable-animated-1.1.0\AndroidManifest.xml:17:1-24:12
MERGED from [androidx.vectordrawable:vectordrawable:1.1.0] C:\Users\hritu\.gradle\caches\transforms-2\files-2.1\dc56935102dcdab58a12d087edaf128d\vectordrawable-1.1.0\AndroidManifest.xml:17:1-24:12
MERGED from [androidx.viewpager:viewpager:1.0.0] C:\Users\hritu\.gradle\caches\transforms-2\files-2.1\2cece2f75487338a105c80875d5fde37\viewpager-1.0.0\AndroidManifest.xml:17:1-22:12
MERGED from [androidx.loader:loader:1.0.0] C:\Users\hritu\.gradle\caches\transforms-2\files-2.1\a37a4a302a88e59d7ecfdc5cf208d1fc\loader-1.0.0\AndroidManifest.xml:17:1-22:12
MERGED from [androidx.activity:activity:1.0.0] C:\Users\hritu\.gradle\caches\transforms-2\files-2.1\4e6c052edf946bfa1f04bf6b1919449b\jetified-activity-1.0.0\AndroidManifest.xml:17:1-24:12
MERGED from [androidx.recyclerview:recyclerview:1.1.0] C:\Users\hritu\.gradle\caches\transforms-2\files-2.1\2d1d5fa848c9a8c33fbe117dc2127c1f\recyclerview-1.1.0\AndroidManifest.xml:17:1-24:12
MERGED from [androidx.customview:customview:1.0.0] C:\Users\hritu\.gradle\caches\transforms-2\files-2.1\3b71db3070bad42b0ea03e5fa477a141\customview-1.0.0\AndroidManifest.xml:17:1-22:12
MERGED from [androidx.core:core:1.1.0] C:\Users\hritu\.gradle\caches\transforms-2\files-2.1\67e3c5c9412d3a8e81ffd1e1f3317472\core-1.1.0\AndroidManifest.xml:17:1-26:12
MERGED from [androidx.cursoradapter:cursoradapter:1.0.0] C:\Users\hritu\.gradle\caches\transforms-2\files-2.1\3a4244424c65d824af423d1d1ae24676\cursoradapter-1.0.0\AndroidManifest.xml:17:1-22:12
MERGED from [androidx.cardview:cardview:1.0.0] C:\Users\hritu\.gradle\caches\transforms-2\files-2.1\50ea61940be378fcb4a5a61e15ce569e\cardview-1.0.0\AndroidManifest.xml:17:1-22:12
MERGED from [androidx.versionedparcelable:versionedparcelable:1.1.0] C:\Users\hritu\.gradle\caches\transforms-2\files-2.1\4a3bef715aa0f51bf2f2dc80a74d2228\versionedparcelable-1.1.0\AndroidManifest.xml:17:1-27:12
MERGED from [androidx.lifecycle:lifecycle-runtime:2.1.0] C:\Users\hritu\.gradle\caches\transforms-2\files-2.1\78cd2577caabd0971c55c56f41a2f7b2\lifecycle-runtime-2.1.0\AndroidManifest.xml:17:1-22:12
MERGED from [androidx.lifecycle:lifecycle-viewmodel:2.1.0] C:\Users\hritu\.gradle\caches\transforms-2\files-2.1\d1866b103840704bad7e50bba6a4ce74\lifecycle-viewmodel-2.1.0\AndroidManifest.xml:17:1-22:12
MERGED from [androidx.savedstate:savedstate:1.0.0] C:\Users\hritu\.gradle\caches\transforms-2\files-2.1\2dfe9efe2d0ab7b00680dea86c461c5a\jetified-savedstate-1.0.0\AndroidManifest.xml:17:1-24:12
MERGED from [androidx.interpolator:interpolator:1.0.0] C:\Users\hritu\.gradle\caches\transforms-2\files-2.1\4d840f872c3e190d654a2549cff7a779\interpolator-1.0.0\AndroidManifest.xml:17:1-22:12
MERGED from [androidx.lifecycle:lifecycle-livedata:2.0.0] C:\Users\hritu\.gradle\caches\transforms-2\files-2.1\569bef2f57f8b2871a267b8e303c851d\lifecycle-livedata-2.0.0\AndroidManifest.xml:17:1-22:12
MERGED from [androidx.lifecycle:lifecycle-livedata-core:2.0.0] C:\Users\hritu\.gradle\caches\transforms-2\files-2.1\e56446a5c60639c4d0ca5fa855f652d8\lifecycle-livedata-core-2.0.0\AndroidManifest.xml:17:1-22:12
MERGED from [androidx.arch.core:core-runtime:2.0.0] C:\Users\hritu\.gradle\caches\transforms-2\files-2.1\f96d1aa5eab0a6a04eb7973d041db899\core-runtime-2.0.0\AndroidManifest.xml:17:1-22:12
INJECTED from F:\Windows 10\RTR\RTR_3\RTR2020_Class_Assignment\01_OpenGL\02_PP\03_Android\51_HappyBirthdayTemplate\01_SOURCE_CODE\app\src\main\AndroidManifest.xml:2:1-19:12
	package
		ADDED from F:\Windows 10\RTR\RTR_3\RTR2020_Class_Assignment\01_OpenGL\02_PP\03_Android\51_HappyBirthdayTemplate\01_SOURCE_CODE\app\src\main\AndroidManifest.xml:3:5-35
		INJECTED from F:\Windows 10\RTR\RTR_3\RTR2020_Class_Assignment\01_OpenGL\02_PP\03_Android\51_HappyBirthdayTemplate\01_SOURCE_CODE\app\src\main\AndroidManifest.xml
		INJECTED from F:\Windows 10\RTR\RTR_3\RTR2020_Class_Assignment\01_OpenGL\02_PP\03_Android\51_HappyBirthdayTemplate\01_SOURCE_CODE\app\src\main\AndroidManifest.xml
	xmlns:android
		ADDED from F:\Windows 10\RTR\RTR_3\RTR2020_Class_Assignment\01_OpenGL\02_PP\03_Android\51_HappyBirthdayTemplate\01_SOURCE_CODE\app\src\main\AndroidManifest.xml:2:11-69
application
ADDED from F:\Windows 10\RTR\RTR_3\RTR2020_Class_Assignment\01_OpenGL\02_PP\03_Android\51_HappyBirthdayTemplate\01_SOURCE_CODE\app\src\main\AndroidManifest.xml:5:5-17:19
MERGED from [com.google.android.material:material:1.1.0] C:\Users\hritu\.gradle\caches\transforms-2\files-2.1\5027b08b6dae28f06478eb3944afe9b2\material-1.1.0\AndroidManifest.xml:22:5-20
MERGED from [com.google.android.material:material:1.1.0] C:\Users\hritu\.gradle\caches\transforms-2\files-2.1\5027b08b6dae28f06478eb3944afe9b2\material-1.1.0\AndroidManifest.xml:22:5-20
MERGED from [androidx.constraintlayout:constraintlayout:1.1.3] C:\Users\hritu\.gradle\caches\transforms-2\files-2.1\63162668b364c5becb51e138f81bf7b1\constraintlayout-1.1.3\AndroidManifest.xml:9:5-20
MERGED from [androidx.constraintlayout:constraintlayout:1.1.3] C:\Users\hritu\.gradle\caches\transforms-2\files-2.1\63162668b364c5becb51e138f81bf7b1\constraintlayout-1.1.3\AndroidManifest.xml:9:5-20
MERGED from [androidx.core:core:1.1.0] C:\Users\hritu\.gradle\caches\transforms-2\files-2.1\67e3c5c9412d3a8e81ffd1e1f3317472\core-1.1.0\AndroidManifest.xml:24:5-89
MERGED from [androidx.core:core:1.1.0] C:\Users\hritu\.gradle\caches\transforms-2\files-2.1\67e3c5c9412d3a8e81ffd1e1f3317472\core-1.1.0\AndroidManifest.xml:24:5-89
MERGED from [androidx.versionedparcelable:versionedparcelable:1.1.0] C:\Users\hritu\.gradle\caches\transforms-2\files-2.1\4a3bef715aa0f51bf2f2dc80a74d2228\versionedparcelable-1.1.0\AndroidManifest.xml:24:5-25:19
MERGED from [androidx.versionedparcelable:versionedparcelable:1.1.0] C:\Users\hritu\.gradle\caches\transforms-2\files-2.1\4a3bef715aa0f51bf2f2dc80a74d2228\versionedparcelable-1.1.0\AndroidManifest.xml:24:5-25:19
	android:appComponentFactory
		ADDED from [androidx.core:core:1.1.0] C:\Users\hritu\.gradle\caches\transforms-2\files-2.1\67e3c5c9412d3a8e81ffd1e1f3317472\core-1.1.0\AndroidManifest.xml:24:18-86
	android:label
		ADDED from F:\Windows 10\RTR\RTR_3\RTR2020_Class_Assignment\01_OpenGL\02_PP\03_Android\51_HappyBirthdayTemplate\01_SOURCE_CODE\app\src\main\AndroidManifest.xml:7:9-41
	android:roundIcon
		ADDED from F:\Windows 10\RTR\RTR_3\RTR2020_Class_Assignment\01_OpenGL\02_PP\03_Android\51_HappyBirthdayTemplate\01_SOURCE_CODE\app\src\main\AndroidManifest.xml:8:9-49
	android:icon
		ADDED from F:\Windows 10\RTR\RTR_3\RTR2020_Class_Assignment\01_OpenGL\02_PP\03_Android\51_HappyBirthdayTemplate\01_SOURCE_CODE\app\src\main\AndroidManifest.xml:6:9-38
	android:theme
		ADDED from F:\Windows 10\RTR\RTR_3\RTR2020_Class_Assignment\01_OpenGL\02_PP\03_Android\51_HappyBirthdayTemplate\01_SOURCE_CODE\app\src\main\AndroidManifest.xml:9:9-47
activity#com.example.bdaydemo.MainActivity
ADDED from F:\Windows 10\RTR\RTR_3\RTR2020_Class_Assignment\01_OpenGL\02_PP\03_Android\51_HappyBirthdayTemplate\01_SOURCE_CODE\app\src\main\AndroidManifest.xml:10:9-16:20
	android:name
		ADDED from F:\Windows 10\RTR\RTR_3\RTR2020_Class_Assignment\01_OpenGL\02_PP\03_Android\51_HappyBirthdayTemplate\01_SOURCE_CODE\app\src\main\AndroidManifest.xml:10:19-47
intent-filter#action:name:android.intent.action.MAIN+category:name:android.intent.category.LAUNCHER
ADDED from F:\Windows 10\RTR\RTR_3\RTR2020_Class_Assignment\01_OpenGL\02_PP\03_Android\51_HappyBirthdayTemplate\01_SOURCE_CODE\app\src\main\AndroidManifest.xml:11:13-15:29
action#android.intent.action.MAIN
ADDED from F:\Windows 10\RTR\RTR_3\RTR2020_Class_Assignment\01_OpenGL\02_PP\03_Android\51_HappyBirthdayTemplate\01_SOURCE_CODE\app\src\main\AndroidManifest.xml:12:17-69
	android:name
		ADDED from F:\Windows 10\RTR\RTR_3\RTR2020_Class_Assignment\01_OpenGL\02_PP\03_Android\51_HappyBirthdayTemplate\01_SOURCE_CODE\app\src\main\AndroidManifest.xml:12:25-66
category#android.intent.category.LAUNCHER
ADDED from F:\Windows 10\RTR\RTR_3\RTR2020_Class_Assignment\01_OpenGL\02_PP\03_Android\51_HappyBirthdayTemplate\01_SOURCE_CODE\app\src\main\AndroidManifest.xml:14:17-77
	android:name
		ADDED from F:\Windows 10\RTR\RTR_3\RTR2020_Class_Assignment\01_OpenGL\02_PP\03_Android\51_HappyBirthdayTemplate\01_SOURCE_CODE\app\src\main\AndroidManifest.xml:14:27-74
uses-sdk
INJECTED from F:\Windows 10\RTR\RTR_3\RTR2020_Class_Assignment\01_OpenGL\02_PP\03_Android\51_HappyBirthdayTemplate\01_SOURCE_CODE\app\src\main\AndroidManifest.xml reason: use-sdk injection requested
INJECTED from F:\Windows 10\RTR\RTR_3\RTR2020_Class_Assignment\01_OpenGL\02_PP\03_Android\51_HappyBirthdayTemplate\01_SOURCE_CODE\app\src\main\AndroidManifest.xml
INJECTED from F:\Windows 10\RTR\RTR_3\RTR2020_Class_Assignment\01_OpenGL\02_PP\03_Android\51_HappyBirthdayTemplate\01_SOURCE_CODE\app\src\main\AndroidManifest.xml
MERGED from [com.google.android.material:material:1.1.0] C:\Users\hritu\.gradle\caches\transforms-2\files-2.1\5027b08b6dae28f06478eb3944afe9b2\material-1.1.0\AndroidManifest.xml:20:5-44
MERGED from [com.google.android.material:material:1.1.0] C:\Users\hritu\.gradle\caches\transforms-2\files-2.1\5027b08b6dae28f06478eb3944afe9b2\material-1.1.0\AndroidManifest.xml:20:5-44
MERGED from [androidx.appcompat:appcompat:1.1.0] C:\Users\hritu\.gradle\caches\transforms-2\files-2.1\f9ad3464551cf46253b772c9e55bac48\appcompat-1.1.0\AndroidManifest.xml:20:5-22:41
MERGED from [androidx.appcompat:appcompat:1.1.0] C:\Users\hritu\.gradle\caches\transforms-2\files-2.1\f9ad3464551cf46253b772c9e55bac48\appcompat-1.1.0\AndroidManifest.xml:20:5-22:41
MERGED from [androidx.constraintlayout:constraintlayout:1.1.3] C:\Users\hritu\.gradle\caches\transforms-2\files-2.1\63162668b364c5becb51e138f81bf7b1\constraintlayout-1.1.3\AndroidManifest.xml:5:5-7:41
MERGED from [androidx.constraintlayout:constraintlayout:1.1.3] C:\Users\hritu\.gradle\caches\transforms-2\files-2.1\63162668b364c5becb51e138f81bf7b1\constraintlayout-1.1.3\AndroidManifest.xml:5:5-7:41
MERGED from [androidx.viewpager2:viewpager2:1.0.0] C:\Users\hritu\.gradle\caches\transforms-2\files-2.1\b280767b2985335a59d593544e4528f5\jetified-viewpager2-1.0.0\AndroidManifest.xml:20:5-22:41
MERGED from [androidx.viewpager2:viewpager2:1.0.0] C:\Users\hritu\.gradle\caches\transforms-2\files-2.1\b280767b2985335a59d593544e4528f5\jetified-viewpager2-1.0.0\AndroidManifest.xml:20:5-22:41
MERGED from [androidx.fragment:fragment:1.1.0] C:\Users\hritu\.gradle\caches\transforms-2\files-2.1\fc36bc220953b865edf8e840a72b8115\fragment-1.1.0\AndroidManifest.xml:20:5-22:41
MERGED from [androidx.fragment:fragment:1.1.0] C:\Users\hritu\.gradle\caches\transforms-2\files-2.1\fc36bc220953b865edf8e840a72b8115\fragment-1.1.0\AndroidManifest.xml:20:5-22:41
MERGED from [androidx.appcompat:appcompat-resources:1.1.0] C:\Users\hritu\.gradle\caches\transforms-2\files-2.1\cf733d91afbf2360189696891b5de5de\jetified-appcompat-resources-1.1.0\AndroidManifest.xml:20:5-22:41
MERGED from [androidx.appcompat:appcompat-resources:1.1.0] C:\Users\hritu\.gradle\caches\transforms-2\files-2.1\cf733d91afbf2360189696891b5de5de\jetified-appcompat-resources-1.1.0\AndroidManifest.xml:20:5-22:41
MERGED from [androidx.drawerlayout:drawerlayout:1.0.0] C:\Users\hritu\.gradle\caches\transforms-2\files-2.1\0c6bd16d0682a277759770b4fc491f5b\drawerlayout-1.0.0\AndroidManifest.xml:20:5-44
MERGED from [androidx.drawerlayout:drawerlayout:1.0.0] C:\Users\hritu\.gradle\caches\transforms-2\files-2.1\0c6bd16d0682a277759770b4fc491f5b\drawerlayout-1.0.0\AndroidManifest.xml:20:5-44
MERGED from [androidx.coordinatorlayout:coordinatorlayout:1.1.0] C:\Users\hritu\.gradle\caches\transforms-2\files-2.1\0c23e228d112c659f595102e603080e0\coordinatorlayout-1.1.0\AndroidManifest.xml:20:5-22:41
MERGED from [androidx.coordinatorlayout:coordinatorlayout:1.1.0] C:\Users\hritu\.gradle\caches\transforms-2\files-2.1\0c23e228d112c659f595102e603080e0\coordinatorlayout-1.1.0\AndroidManifest.xml:20:5-22:41
MERGED from [androidx.transition:transition:1.2.0] C:\Users\hritu\.gradle\caches\transforms-2\files-2.1\1e10802eb534afda69445bd2891c515e\transition-1.2.0\AndroidManifest.xml:20:5-22:41
MERGED from [androidx.transition:transition:1.2.0] C:\Users\hritu\.gradle\caches\transforms-2\files-2.1\1e10802eb534afda69445bd2891c515e\transition-1.2.0\AndroidManifest.xml:20:5-22:41
MERGED from [androidx.vectordrawable:vectordrawable-animated:1.1.0] C:\Users\hritu\.gradle\caches\transforms-2\files-2.1\bd6ac3050b5daab12f272515d69f4bd8\vectordrawable-animated-1.1.0\AndroidManifest.xml:20:5-22:41
MERGED from [androidx.vectordrawable:vectordrawable-animated:1.1.0] C:\Users\hritu\.gradle\caches\transforms-2\files-2.1\bd6ac3050b5daab12f272515d69f4bd8\vectordrawable-animated-1.1.0\AndroidManifest.xml:20:5-22:41
MERGED from [androidx.vectordrawable:vectordrawable:1.1.0] C:\Users\hritu\.gradle\caches\transforms-2\files-2.1\dc56935102dcdab58a12d087edaf128d\vectordrawable-1.1.0\AndroidManifest.xml:20:5-22:41
MERGED from [androidx.vectordrawable:vectordrawable:1.1.0] C:\Users\hritu\.gradle\caches\transforms-2\files-2.1\dc56935102dcdab58a12d087edaf128d\vectordrawable-1.1.0\AndroidManifest.xml:20:5-22:41
MERGED from [androidx.viewpager:viewpager:1.0.0] C:\Users\hritu\.gradle\caches\transforms-2\files-2.1\2cece2f75487338a105c80875d5fde37\viewpager-1.0.0\AndroidManifest.xml:20:5-44
MERGED from [androidx.viewpager:viewpager:1.0.0] C:\Users\hritu\.gradle\caches\transforms-2\files-2.1\2cece2f75487338a105c80875d5fde37\viewpager-1.0.0\AndroidManifest.xml:20:5-44
MERGED from [androidx.loader:loader:1.0.0] C:\Users\hritu\.gradle\caches\transforms-2\files-2.1\a37a4a302a88e59d7ecfdc5cf208d1fc\loader-1.0.0\AndroidManifest.xml:20:5-44
MERGED from [androidx.loader:loader:1.0.0] C:\Users\hritu\.gradle\caches\transforms-2\files-2.1\a37a4a302a88e59d7ecfdc5cf208d1fc\loader-1.0.0\AndroidManifest.xml:20:5-44
MERGED from [androidx.activity:activity:1.0.0] C:\Users\hritu\.gradle\caches\transforms-2\files-2.1\4e6c052edf946bfa1f04bf6b1919449b\jetified-activity-1.0.0\AndroidManifest.xml:20:5-22:41
MERGED from [androidx.activity:activity:1.0.0] C:\Users\hritu\.gradle\caches\transforms-2\files-2.1\4e6c052edf946bfa1f04bf6b1919449b\jetified-activity-1.0.0\AndroidManifest.xml:20:5-22:41
MERGED from [androidx.recyclerview:recyclerview:1.1.0] C:\Users\hritu\.gradle\caches\transforms-2\files-2.1\2d1d5fa848c9a8c33fbe117dc2127c1f\recyclerview-1.1.0\AndroidManifest.xml:20:5-22:41
MERGED from [androidx.recyclerview:recyclerview:1.1.0] C:\Users\hritu\.gradle\caches\transforms-2\files-2.1\2d1d5fa848c9a8c33fbe117dc2127c1f\recyclerview-1.1.0\AndroidManifest.xml:20:5-22:41
MERGED from [androidx.customview:customview:1.0.0] C:\Users\hritu\.gradle\caches\transforms-2\files-2.1\3b71db3070bad42b0ea03e5fa477a141\customview-1.0.0\AndroidManifest.xml:20:5-44
MERGED from [androidx.customview:customview:1.0.0] C:\Users\hritu\.gradle\caches\transforms-2\files-2.1\3b71db3070bad42b0ea03e5fa477a141\customview-1.0.0\AndroidManifest.xml:20:5-44
MERGED from [androidx.core:core:1.1.0] C:\Users\hritu\.gradle\caches\transforms-2\files-2.1\67e3c5c9412d3a8e81ffd1e1f3317472\core-1.1.0\AndroidManifest.xml:20:5-22:41
MERGED from [androidx.core:core:1.1.0] C:\Users\hritu\.gradle\caches\transforms-2\files-2.1\67e3c5c9412d3a8e81ffd1e1f3317472\core-1.1.0\AndroidManifest.xml:20:5-22:41
MERGED from [androidx.cursoradapter:cursoradapter:1.0.0] C:\Users\hritu\.gradle\caches\transforms-2\files-2.1\3a4244424c65d824af423d1d1ae24676\cursoradapter-1.0.0\AndroidManifest.xml:20:5-44
MERGED from [androidx.cursoradapter:cursoradapter:1.0.0] C:\Users\hritu\.gradle\caches\transforms-2\files-2.1\3a4244424c65d824af423d1d1ae24676\cursoradapter-1.0.0\AndroidManifest.xml:20:5-44
MERGED from [androidx.cardview:cardview:1.0.0] C:\Users\hritu\.gradle\caches\transforms-2\files-2.1\50ea61940be378fcb4a5a61e15ce569e\cardview-1.0.0\AndroidManifest.xml:20:5-44
MERGED from [androidx.cardview:cardview:1.0.0] C:\Users\hritu\.gradle\caches\transforms-2\files-2.1\50ea61940be378fcb4a5a61e15ce569e\cardview-1.0.0\AndroidManifest.xml:20:5-44
MERGED from [androidx.versionedparcelable:versionedparcelable:1.1.0] C:\Users\hritu\.gradle\caches\transforms-2\files-2.1\4a3bef715aa0f51bf2f2dc80a74d2228\versionedparcelable-1.1.0\AndroidManifest.xml:20:5-22:41
MERGED from [androidx.versionedparcelable:versionedparcelable:1.1.0] C:\Users\hritu\.gradle\caches\transforms-2\files-2.1\4a3bef715aa0f51bf2f2dc80a74d2228\versionedparcelable-1.1.0\AndroidManifest.xml:20:5-22:41
MERGED from [androidx.lifecycle:lifecycle-runtime:2.1.0] C:\Users\hritu\.gradle\caches\transforms-2\files-2.1\78cd2577caabd0971c55c56f41a2f7b2\lifecycle-runtime-2.1.0\AndroidManifest.xml:20:5-44
MERGED from [androidx.lifecycle:lifecycle-runtime:2.1.0] C:\Users\hritu\.gradle\caches\transforms-2\files-2.1\78cd2577caabd0971c55c56f41a2f7b2\lifecycle-runtime-2.1.0\AndroidManifest.xml:20:5-44
MERGED from [androidx.lifecycle:lifecycle-viewmodel:2.1.0] C:\Users\hritu\.gradle\caches\transforms-2\files-2.1\d1866b103840704bad7e50bba6a4ce74\lifecycle-viewmodel-2.1.0\AndroidManifest.xml:20:5-44
MERGED from [androidx.lifecycle:lifecycle-viewmodel:2.1.0] C:\Users\hritu\.gradle\caches\transforms-2\files-2.1\d1866b103840704bad7e50bba6a4ce74\lifecycle-viewmodel-2.1.0\AndroidManifest.xml:20:5-44
MERGED from [androidx.savedstate:savedstate:1.0.0] C:\Users\hritu\.gradle\caches\transforms-2\files-2.1\2dfe9efe2d0ab7b00680dea86c461c5a\jetified-savedstate-1.0.0\AndroidManifest.xml:20:5-22:41
MERGED from [androidx.savedstate:savedstate:1.0.0] C:\Users\hritu\.gradle\caches\transforms-2\files-2.1\2dfe9efe2d0ab7b00680dea86c461c5a\jetified-savedstate-1.0.0\AndroidManifest.xml:20:5-22:41
MERGED from [androidx.interpolator:interpolator:1.0.0] C:\Users\hritu\.gradle\caches\transforms-2\files-2.1\4d840f872c3e190d654a2549cff7a779\interpolator-1.0.0\AndroidManifest.xml:20:5-44
MERGED from [androidx.interpolator:interpolator:1.0.0] C:\Users\hritu\.gradle\caches\transforms-2\files-2.1\4d840f872c3e190d654a2549cff7a779\interpolator-1.0.0\AndroidManifest.xml:20:5-44
MERGED from [androidx.lifecycle:lifecycle-livedata:2.0.0] C:\Users\hritu\.gradle\caches\transforms-2\files-2.1\569bef2f57f8b2871a267b8e303c851d\lifecycle-livedata-2.0.0\AndroidManifest.xml:20:5-44
MERGED from [androidx.lifecycle:lifecycle-livedata:2.0.0] C:\Users\hritu\.gradle\caches\transforms-2\files-2.1\569bef2f57f8b2871a267b8e303c851d\lifecycle-livedata-2.0.0\AndroidManifest.xml:20:5-44
MERGED from [androidx.lifecycle:lifecycle-livedata-core:2.0.0] C:\Users\hritu\.gradle\caches\transforms-2\files-2.1\e56446a5c60639c4d0ca5fa855f652d8\lifecycle-livedata-core-2.0.0\AndroidManifest.xml:20:5-44
MERGED from [androidx.lifecycle:lifecycle-livedata-core:2.0.0] C:\Users\hritu\.gradle\caches\transforms-2\files-2.1\e56446a5c60639c4d0ca5fa855f652d8\lifecycle-livedata-core-2.0.0\AndroidManifest.xml:20:5-44
MERGED from [androidx.arch.core:core-runtime:2.0.0] C:\Users\hritu\.gradle\caches\transforms-2\files-2.1\f96d1aa5eab0a6a04eb7973d041db899\core-runtime-2.0.0\AndroidManifest.xml:20:5-44
MERGED from [androidx.arch.core:core-runtime:2.0.0] C:\Users\hritu\.gradle\caches\transforms-2\files-2.1\f96d1aa5eab0a6a04eb7973d041db899\core-runtime-2.0.0\AndroidManifest.xml:20:5-44
INJECTED from F:\Windows 10\RTR\RTR_3\RTR2020_Class_Assignment\01_OpenGL\02_PP\03_Android\51_HappyBirthdayTemplate\01_SOURCE_CODE\app\src\main\AndroidManifest.xml
INJECTED from F:\Windows 10\RTR\RTR_3\RTR2020_Class_Assignment\01_OpenGL\02_PP\03_Android\51_HappyBirthdayTemplate\01_SOURCE_CODE\app\src\main\AndroidManifest.xml
	android:targetSdkVersion
		INJECTED from F:\Windows 10\RTR\RTR_3\RTR2020_Class_Assignment\01_OpenGL\02_PP\03_Android\51_HappyBirthdayTemplate\01_SOURCE_CODE\app\src\main\AndroidManifest.xml
		ADDED from F:\Windows 10\RTR\RTR_3\RTR2020_Class_Assignment\01_OpenGL\02_PP\03_Android\51_HappyBirthdayTemplate\01_SOURCE_CODE\app\src\main\AndroidManifest.xml
		INJECTED from F:\Windows 10\RTR\RTR_3\RTR2020_Class_Assignment\01_OpenGL\02_PP\03_Android\51_HappyBirthdayTemplate\01_SOURCE_CODE\app\src\main\AndroidManifest.xml
	android:minSdkVersion
		INJECTED from F:\Windows 10\RTR\RTR_3\RTR2020_Class_Assignment\01_OpenGL\02_PP\03_Android\51_HappyBirthdayTemplate\01_SOURCE_CODE\app\src\main\AndroidManifest.xml
		ADDED from F:\Windows 10\RTR\RTR_3\RTR2020_Class_Assignment\01_OpenGL\02_PP\03_Android\51_HappyBirthdayTemplate\01_SOURCE_CODE\app\src\main\AndroidManifest.xml
		INJECTED from F:\Windows 10\RTR\RTR_3\RTR2020_Class_Assignment\01_OpenGL\02_PP\03_Android\51_HappyBirthdayTemplate\01_SOURCE_CODE\app\src\main\AndroidManifest.xml
