^F:\WINDOWS 10\RTR\RTR_3\RTR2020_CLASS_ASSIGNMENT\01_OPENGL\02_PP\01_WINDOWS\99_ASSIMP\LIB\ASSIMP-MASTER\CMAKEFILES\E0410C83D46EC7D843A9398AA5C960F2\GENERATE.STAMP.RULE
F:\WINDOWS 10\RTR\RTR_3\RTR2020_CLASS_ASSIGNMENT\01_OPENGL\02_PP\01_WINDOWS\99_ASSIMP\LIB\ASSIMP-MASTER\CMAKEFILES\GENERATE.STAMP
F:\WINDOWS 10\RTR\RTR_3\RTR2020_CLASS_ASSIGNMENT\01_OPENGL\02_PP\01_WINDOWS\99_ASSIMP\LIB\ASSIMP-MASTER\CONTRIB\ZLIB\CMAKEFILES\GENERATE.STAMP
F:\WINDOWS 10\RTR\RTR_3\RTR2020_CLASS_ASSIGNMENT\01_OPENGL\02_PP\01_WINDOWS\99_ASSIMP\LIB\ASSIMP-MASTER\CODE\CMAKEFILES\GENERATE.STAMP
F:\WINDOWS 10\RTR\RTR_3\RTR2020_CLASS_ASSIGNMENT\01_OPENGL\02_PP\01_WINDOWS\99_ASSIMP\LIB\ASSIMP-MASTER\TEST\CMAKEFILES\GENERATE.STAMP
F:\WINDOWS 10\RTR\RTR_3\RTR2020_CLASS_ASSIGNMENT\01_OPENGL\02_PP\01_WINDOWS\99_ASSIMP\LIB\ASSIMP-MASTER\TEST\HEADERCHECK\CMAKEFILES\GENERATE.STAMP
