^F:\WINDOWS 10\RTR\RTR_3\RTR2020_CLASS_ASSIGNMENT\01_OPENGL\02_PP\01_WINDOWS\99_ASSIMP\LIB\ASSIMP-MASTER\TEST\UNIT\CCOMPILERTEST.C
F:\WINDOWS 10\RTR\RTR_3\RTR2020_CLASS_ASSIGNMENT\01_OPENGL\02_PP\01_WINDOWS\99_ASSIMP\LIB\ASSIMP-MASTER\TEST\UNIT.DIR\DEBUG\VC143.PDB
F:\WINDOWS 10\RTR\RTR_3\RTR2020_CLASS_ASSIGNMENT\01_OPENGL\02_PP\01_WINDOWS\99_ASSIMP\LIB\ASSIMP-MASTER\TEST\UNIT.DIR\DEBUG\CCOMPILERTEST.OBJ
^F:\WINDOWS 10\RTR\RTR_3\RTR2020_CLASS_ASSIGNMENT\01_OPENGL\02_PP\01_WINDOWS\99_ASSIMP\LIB\ASSIMP-MASTER\CODE\COMMON\BASE64.CPP|F:\WINDOWS 10\RTR\RTR_3\RTR2020_CLASS_ASSIGNMENT\01_OPENGL\02_PP\01_WINDOWS\99_ASSIMP\LIB\ASSIMP-MASTER\CODE\COMMON\VERSION.CPP|F:\WINDOWS 10\RTR\RTR_3\RTR2020_CLASS_ASSIGNMENT\01_OPENGL\02_PP\01_WINDOWS\99_ASSIMP\LIB\ASSIMP-MASTER\CONTRIB\GTEST\SRC\GTEST-ALL.CC|F:\WINDOWS 10\RTR\RTR_3\RTR2020_CLASS_ASSIGNMENT\01_OPENGL\02_PP\01_WINDOWS\99_ASSIMP\LIB\ASSIMP-MASTER\TEST\UNIT\ABSTRACTIMPORTEXPORTBASE.CPP|F:\WINDOWS 10\RTR\RTR_3\RTR2020_CLASS_ASSIGNMENT\01_OPENGL\02_PP\01_WINDOWS\99_ASSIMP\LIB\ASSIMP-MASTER\TEST\UNIT\ASSIMPAPITEST.CPP|F:\WINDOWS 10\RTR\RTR_3\RTR2020_CLASS_ASSIGNMENT\01_OPENGL\02_PP\01_WINDOWS\99_ASSIMP\LIB\ASSIMP-MASTER\TEST\UNIT\ASSIMPAPITEST_AIMATRIX3X3.CPP|F:\WINDOWS 10\RTR\RTR_3\RTR2020_CLASS_ASSIGNMENT\01_OPENGL\02_PP\01_WINDOWS\99_ASSIMP\LIB\ASSIMP-MASTER\TEST\UNIT\ASSIMPAPITEST_AIMATRIX4X4.CPP|F:\WINDOWS 10\RTR\RTR_3\RTR2020_CLASS_ASSIGNMENT\01_OPENGL\02_PP\01_WINDOWS\99_ASSIMP\LIB\ASSIMP-MASTER\TEST\UNIT\ASSIMPAPITEST_AIQUATERNION.CPP|F:\WINDOWS 10\RTR\RTR_3\RTR2020_CLASS_ASSIGNMENT\01_OPENGL\02_PP\01_WINDOWS\99_ASSIMP\LIB\ASSIMP-MASTER\TEST\UNIT\ASSIMPAPITEST_AIVECTOR2D.CPP|F:\WINDOWS 10\RTR\RTR_3\RTR2020_CLASS_ASSIGNMENT\01_OPENGL\02_PP\01_WINDOWS\99_ASSIMP\LIB\ASSIMP-MASTER\TEST\UNIT\ASSIMPAPITEST_AIVECTOR3D.CPP|F:\WINDOWS 10\RTR\RTR_3\RTR2020_CLASS_ASSIGNMENT\01_OPENGL\02_PP\01_WINDOWS\99_ASSIMP\LIB\ASSIMP-MASTER\TEST\UNIT\COMMON\UISCENE.CPP|F:\WINDOWS 10\RTR\RTR_3\RTR2020_CLASS_ASSIGNMENT\01_OPENGL\02_PP\01_WINDOWS\99_ASSIMP\LIB\ASSIMP-MASTER\TEST\UNIT\COMMON\UTASSERTHANDLER.CPP|F:\WINDOWS 10\RTR\RTR_3\RTR2020_CLASS_ASSIGNMENT\01_OPENGL\02_PP\01_WINDOWS\99_ASSIMP\LIB\ASSIMP-MASTER\TEST\UNIT\COMMON\UTBASE64.CPP|F:\WINDOWS 10\RTR\RTR_3\RTR2020_CLASS_ASSIGNMENT\01_OPENGL\02_PP\01_WINDOWS\99_ASSIMP\LIB\ASSIMP-MASTER\TEST\UNIT\COMMON\UTHASH.CPP|F:\WINDOWS 10\RTR\RTR_3\RTR2020_CLASS_ASSIGNMENT\01_OPENGL\02_PP\01_WINDOWS\99_ASSIMP\LIB\ASSIMP-MASTER\TEST\UNIT\COMMON\UTLINESPLITTER.CPP|F:\WINDOWS 10\RTR\RTR_3\RTR2020_CLASS_ASSIGNMENT\01_OPENGL\02_PP\01_WINDOWS\99_ASSIMP\LIB\ASSIMP-MASTER\TEST\UNIT\COMMON\UTMESH.CPP|F:\WINDOWS 10\RTR\RTR_3\RTR2020_CLASS_ASSIGNMENT\01_OPENGL\02_PP\01_WINDOWS\99_ASSIMP\LIB\ASSIMP-MASTER\TEST\UNIT\COMMON\UTSPATIALSORT.CPP|F:\WINDOWS 10\RTR\RTR_3\RTR2020_CLASS_ASSIGNMENT\01_OPENGL\02_PP\01_WINDOWS\99_ASSIMP\LIB\ASSIMP-MASTER\TEST\UNIT\COMMON\UTSTANDARDSHAPES.CPP|F:\WINDOWS 10\RTR\RTR_3\RTR2020_CLASS_ASSIGNMENT\01_OPENGL\02_PP\01_WINDOWS\99_ASSIMP\LIB\ASSIMP-MASTER\TEST\UNIT\COMMON\UTXMLPARSER.CPP|F:\WINDOWS 10\RTR\RTR_3\RTR2020_CLASS_ASSIGNMENT\01_OPENGL\02_PP\01_WINDOWS\99_ASSIMP\LIB\ASSIMP-MASTER\TEST\UNIT\IMPORTEXPORT\ASSXML\UTASSXMLIMPORTEXPORT.CPP|F:\WINDOWS 10\RTR\RTR_3\RTR2020_CLASS_ASSIGNMENT\01_OPENGL\02_PP\01_WINDOWS\99_ASSIMP\LIB\ASSIMP-MASTER\TEST\UNIT\IMPORTEXPORT\MDL\UTMDLIMPORTER_HL1_IMPORTSETTINGS.CPP|F:\WINDOWS 10\RTR\RTR_3\RTR2020_CLASS_ASSIGNMENT\01_OPENGL\02_PP\01_WINDOWS\99_ASSIMP\LIB\ASSIMP-MASTER\TEST\UNIT\IMPORTEXPORT\MDL\UTMDLIMPORTER_HL1_MATERIALS.CPP|F:\WINDOWS 10\RTR\RTR_3\RTR2020_CLASS_ASSIGNMENT\01_OPENGL\02_PP\01_WINDOWS\99_ASSIMP\LIB\ASSIMP-MASTER\TEST\UNIT\IMPORTEXPORT\MDL\UTMDLIMPORTER_HL1_NODES.CPP|F:\WINDOWS 10\RTR\RTR_3\RTR2020_CLASS_ASSIGNMENT\01_OPENGL\02_PP\01_WINDOWS\99_ASSIMP\LIB\ASSIMP-MASTER\TEST\UNIT\IMPORTEXPORT\RAW\UTRAWIMPORTEXPORT.CPP|F:\WINDOWS 10\RTR\RTR_3\RTR2020_CLASS_ASSIGNMENT\01_OPENGL\02_PP\01_WINDOWS\99_ASSIMP\LIB\ASSIMP-MASTER\TEST\UNIT\IMPORTEXPORT\TERRAGEN\UTTERRAGENIMPORTEXPORT.CPP|F:\WINDOWS 10\RTR\RTR_3\RTR2020_CLASS_ASSIGNMENT\01_OPENGL\02_PP\01_WINDOWS\99_ASSIMP\LIB\ASSIMP-MASTER\TEST\UNIT\IMPORTEXPORT\UTASSJSONIMPORTEXPORT.CPP|F:\WINDOWS 10\RTR\RTR_3\RTR2020_CLASS_ASSIGNMENT\01_OPENGL\02_PP\01_WINDOWS\99_ASSIMP\LIB\ASSIMP-MASTER\TEST\UNIT\IMPORTEXPORT\UTCOBIMPORTEXPORT.CPP|F:\WINDOWS 10\RTR\RTR_3\RTR2020_CLASS_ASSIGNMENT\01_OPENGL\02_PP\01_WINDOWS\99_ASSIMP\LIB\ASSIMP-MASTER\TEST\UNIT\IMPORTEXPORT\UTEXPORTER.CPP|F:\WINDOWS 10\RTR\RTR_3\RTR2020_CLASS_ASSIGNMENT\01_OPENGL\02_PP\01_WINDOWS\99_ASSIMP\LIB\ASSIMP-MASTER\TEST\UNIT\IMPORTEXPORT\UTMD2IMPORTER.CPP|F:\WINDOWS 10\RTR\RTR_3\RTR2020_CLASS_ASSIGNMENT\01_OPENGL\02_PP\01_WINDOWS\99_ASSIMP\LIB\ASSIMP-MASTER\TEST\UNIT\IMPORTEXPORT\UTMD5IMPORTER.CPP|F:\WINDOWS 10\RTR\RTR_3\RTR2020_CLASS_ASSIGNMENT\01_OPENGL\02_PP\01_WINDOWS\99_ASSIMP\LIB\ASSIMP-MASTER\TEST\UNIT\IMPORTEXPORT\UTMDLIMPORTER.CPP|F:\WINDOWS 10\RTR\RTR_3\RTR2020_CLASS_ASSIGNMENT\01_OPENGL\02_PP\01_WINDOWS\99_ASSIMP\LIB\ASSIMP-MASTER\TEST\UNIT\IMPORTEXPORT\UTNFFIMPORTEXPORT.CPP|F:\WINDOWS 10\RTR\RTR_3\RTR2020_CLASS_ASSIGNMENT\01_OPENGL\02_PP\01_WINDOWS\99_ASSIMP\LIB\ASSIMP-MASTER\TEST\UNIT\IMPORTEXPORT\UTOFFIMPORTEXPORT.CPP|F:\WINDOWS 10\RTR\RTR_3\RTR2020_CLASS_ASSIGNMENT\01_OPENGL\02_PP\01_WINDOWS\99_ASSIMP\LIB\ASSIMP-MASTER\TEST\UNIT\IMPORTEXPORT\UTOGREIMPORTEXPORT.CPP|F:\WINDOWS 10\RTR\RTR_3\RTR2020_CLASS_ASSIGNMENT\01_OPENGL\02_PP\01_WINDOWS\99_ASSIMP\LIB\ASSIMP-MASTER\TEST\UNIT\IMPORTEXPORT\UTQ3BSPFILEIMPORTEXPORT.CPP|F:\WINDOWS 10\RTR\RTR_3\RTR2020_CLASS_ASSIGNMENT\01_OPENGL\02_PP\01_WINDOWS\99_ASSIMP\LIB\ASSIMP-MASTER\TEST\UNIT\IMPORTEXPORT\UTXGLIMPORTEXPORT.CPP|F:\WINDOWS 10\RTR\RTR_3\RTR2020_CLASS_ASSIGNMENT\01_OPENGL\02_PP\01_WINDOWS\99_ASSIMP\LIB\ASSIMP-MASTER\TEST\UNIT\MAIN.CPP|F:\WINDOWS 10\RTR\RTR_3\RTR2020_CLASS_ASSIGNMENT\01_OPENGL\02_PP\01_WINDOWS\99_ASSIMP\LIB\ASSIMP-MASTER\TEST\UNIT\MATHTEST.CPP|F:\WINDOWS 10\RTR\RTR_3\RTR2020_CLASS_ASSIGNMENT\01_OPENGL\02_PP\01_WINDOWS\99_ASSIMP\LIB\ASSIMP-MASTER\TEST\UNIT\SCENEDIFFER.CPP|F:\WINDOWS 10\RTR\RTR_3\RTR2020_CLASS_ASSIGNMENT\01_OPENGL\02_PP\01_WINDOWS\99_ASSIMP\LIB\ASSIMP-MASTER\TEST\UNIT\UT3DIMPORTEXPORT.CPP|F:\WINDOWS 10\RTR\RTR_3\RTR2020_CLASS_ASSIGNMENT\01_OPENGL\02_PP\01_WINDOWS\99_ASSIMP\LIB\ASSIMP-MASTER\TEST\UNIT\UT3DSIMPORTEXPORT.CPP|F:\WINDOWS 10\RTR\RTR_3\RTR2020_CLASS_ASSIGNMENT\01_OPENGL\02_PP\01_WINDOWS\99_ASSIMP\LIB\ASSIMP-MASTER\TEST\UNIT\UTACIMPORTEXPORT.CPP|F:\WINDOWS 10\RTR\RTR_3\RTR2020_CLASS_ASSIGNMENT\01_OPENGL\02_PP\01_WINDOWS\99_ASSIMP\LIB\ASSIMP-MASTER\TEST\UNIT\UTAMFIMPORTEXPORT.CPP|F:\WINDOWS 10\RTR\RTR_3\RTR2020_CLASS_ASSIGNMENT\01_OPENGL\02_PP\01_WINDOWS\99_ASSIMP\LIB\ASSIMP-MASTER\TEST\UNIT\UTANIM.CPP|F:\WINDOWS 10\RTR\RTR_3\RTR2020_CLASS_ASSIGNMENT\01_OPENGL\02_PP\01_WINDOWS\99_ASSIMP\LIB\ASSIMP-MASTER\TEST\UNIT\UTARMATUREPOPULATE.CPP|F:\WINDOWS 10\RTR\RTR_3\RTR2020_CLASS_ASSIGNMENT\01_OPENGL\02_PP\01_WINDOWS\99_ASSIMP\LIB\ASSIMP-MASTER\TEST\UNIT\UTASEIMPORTEXPORT.CPP|F:\WINDOWS 10\RTR\RTR_3\RTR2020_CLASS_ASSIGNMENT\01_OPENGL\02_PP\01_WINDOWS\99_ASSIMP\LIB\ASSIMP-MASTER\TEST\UNIT\UTASSBINIMPORTEXPORT.CPP|F:\WINDOWS 10\RTR\RTR_3\RTR2020_CLASS_ASSIGNMENT\01_OPENGL\02_PP\01_WINDOWS\99_ASSIMP\LIB\ASSIMP-MASTER\TEST\UNIT\UTB3DIMPORTEXPORT.CPP|F:\WINDOWS 10\RTR\RTR_3\RTR2020_CLASS_ASSIGNMENT\01_OPENGL\02_PP\01_WINDOWS\99_ASSIMP\LIB\ASSIMP-MASTER\TEST\UNIT\UTBATCHLOADER.CPP|F:\WINDOWS 10\RTR\RTR_3\RTR2020_CLASS_ASSIGNMENT\01_OPENGL\02_PP\01_WINDOWS\99_ASSIMP\LIB\ASSIMP-MASTER\TEST\UNIT\UTBLENDERIMPORTEXPORT.CPP|F:\WINDOWS 10\RTR\RTR_3\RTR2020_CLASS_ASSIGNMENT\01_OPENGL\02_PP\01_WINDOWS\99_ASSIMP\LIB\ASSIMP-MASTER\TEST\UNIT\UTBLENDERINTERMEDIATE.CPP|F:\WINDOWS 10\RTR\RTR_3\RTR2020_CLASS_ASSIGNMENT\01_OPENGL\02_PP\01_WINDOWS\99_ASSIMP\LIB\ASSIMP-MASTER\TEST\UNIT\UTBLENDERWORK.CPP|F:\WINDOWS 10\RTR\RTR_3\RTR2020_CLASS_ASSIGNMENT\01_OPENGL\02_PP\01_WINDOWS\99_ASSIMP\LIB\ASSIMP-MASTER\TEST\UNIT\UTBLENDIMPORTAREALIGHT.CPP|F:\WINDOWS 10\RTR\RTR_3\RTR2020_CLASS_ASSIGNMENT\01_OPENGL\02_PP\01_WINDOWS\99_ASSIMP\LIB\ASSIMP-MASTER\TEST\UNIT\UTBLENDIMPORTMATERIALS.CPP|F:\WINDOWS 10\RTR\RTR_3\RTR2020_CLASS_ASSIGNMENT\01_OPENGL\02_PP\01_WINDOWS\99_ASSIMP\LIB\ASSIMP-MASTER\TEST\UNIT\UTBVHIMPORTEXPORT.CPP|F:\WINDOWS 10\RTR\RTR_3\RTR2020_CLASS_ASSIGNMENT\01_OPENGL\02_PP\01_WINDOWS\99_ASSIMP\LIB\ASSIMP-MASTER\TEST\UNIT\UTCOLLADAEXPORT.CPP|F:\WINDOWS 10\RTR\RTR_3\RTR2020_CLASS_ASSIGNMENT\01_OPENGL\02_PP\01_WINDOWS\99_ASSIMP\LIB\ASSIMP-MASTER\TEST\UNIT\UTCOLLADAIMPORTEXPORT.CPP|F:\WINDOWS 10\RTR\RTR_3\RTR2020_CLASS_ASSIGNMENT\01_OPENGL\02_PP\01_WINDOWS\99_ASSIMP\LIB\ASSIMP-MASTER\TEST\UNIT\UTCSMIMPORTEXPORT.CPP|F:\WINDOWS 10\RTR\RTR_3\RTR2020_CLASS_ASSIGNMENT\01_OPENGL\02_PP\01_WINDOWS\99_ASSIMP\LIB\ASSIMP-MASTER\TEST\UNIT\UTD3MFIMPORTEXPORT.CPP|F:\WINDOWS 10\RTR\RTR_3\RTR2020_CLASS_ASSIGNMENT\01_OPENGL\02_PP\01_WINDOWS\99_ASSIMP\LIB\ASSIMP-MASTER\TEST\UNIT\UTDEFAULTIOSTREAM.CPP|F:\WINDOWS 10\RTR\RTR_3\RTR2020_CLASS_ASSIGNMENT\01_OPENGL\02_PP\01_WINDOWS\99_ASSIMP\LIB\ASSIMP-MASTER\TEST\UNIT\UTDXFIMPORTEREXPORTER.CPP|F:\WINDOWS 10\RTR\RTR_3\RTR2020_CLASS_ASSIGNMENT\01_OPENGL\02_PP\01_WINDOWS\99_ASSIMP\LIB\ASSIMP-MASTER\TEST\UNIT\UTFASTATOF.CPP|F:\WINDOWS 10\RTR\RTR_3\RTR2020_CLASS_ASSIGNMENT\01_OPENGL\02_PP\01_WINDOWS\99_ASSIMP\LIB\ASSIMP-MASTER\TEST\UNIT\UTFBXIMPORTEREXPORTER.CPP|F:\WINDOWS 10\RTR\RTR_3\RTR2020_CLASS_ASSIGNMENT\01_OPENGL\02_PP\01_WINDOWS\99_ASSIMP\LIB\ASSIMP-MASTER\TEST\UNIT\UTFINDDEGENERATES.CPP|F:\WINDOWS 10\RTR\RTR_3\RTR2020_CLASS_ASSIGNMENT\01_OPENGL\02_PP\01_WINDOWS\99_ASSIMP\LIB\ASSIMP-MASTER\TEST\UNIT\UTFINDINVALIDDATA.CPP|F:\WINDOWS 10\RTR\RTR_3\RTR2020_CLASS_ASSIGNMENT\01_OPENGL\02_PP\01_WINDOWS\99_ASSIMP\LIB\ASSIMP-MASTER\TEST\UNIT\UTFIXINFACINGNORMALS.CPP|F:\WINDOWS 10\RTR\RTR_3\RTR2020_CLASS_ASSIGNMENT\01_OPENGL\02_PP\01_WINDOWS\99_ASSIMP\LIB\ASSIMP-MASTER\TEST\UNIT\UTGENBOUNDINGBOXESPROCESS.CPP|F:\WINDOWS 10\RTR\RTR_3\RTR2020_CLASS_ASSIGNMENT\01_OPENGL\02_PP\01_WINDOWS\99_ASSIMP\LIB\ASSIMP-MASTER\TEST\UNIT\UTGENNORMALS.CPP|F:\WINDOWS 10\RTR\RTR_3\RTR2020_CLASS_ASSIGNMENT\01_OPENGL\02_PP\01_WINDOWS\99_ASSIMP\LIB\ASSIMP-MASTER\TEST\UNIT\UTGLTF2IMPORTEXPORT.CPP|F:\WINDOWS 10\RTR\RTR_3\RTR2020_CLASS_ASSIGNMENT\01_OPENGL\02_PP\01_WINDOWS\99_ASSIMP\LIB\ASSIMP-MASTER\TEST\UNIT\UTGLTFIMPORTEXPORT.CPP|F:\WINDOWS 10\RTR\RTR_3\RTR2020_CLASS_ASSIGNMENT\01_OPENGL\02_PP\01_WINDOWS\99_ASSIMP\LIB\ASSIMP-MASTER\TEST\UNIT\UTHMPIMPORTEXPORT.CPP|F:\WINDOWS 10\RTR\RTR_3\RTR2020_CLASS_ASSIGNMENT\01_OPENGL\02_PP\01_WINDOWS\99_ASSIMP\LIB\ASSIMP-MASTER\TEST\UNIT\UTIFCIMPORTEXPORT.CPP|F:\WINDOWS 10\RTR\RTR_3\RTR2020_CLASS_ASSIGNMENT\01_OPENGL\02_PP\01_WINDOWS\99_ASSIMP\LIB\ASSIMP-MASTER\TEST\UNIT\UTIMPORTER.CPP|F:\WINDOWS 10\RTR\RTR_3\RTR2020_CLASS_ASSIGNMENT\01_OPENGL\02_PP\01_WINDOWS\99_ASSIMP\LIB\ASSIMP-MASTER\TEST\UNIT\UTIMPROVECACHELOCALITY.CPP|F:\WINDOWS 10\RTR\RTR_3\RTR2020_CLASS_ASSIGNMENT\01_OPENGL\02_PP\01_WINDOWS\99_ASSIMP\LIB\ASSIMP-MASTER\TEST\UNIT\UTIOSTREAMBUFFER.CPP|F:\WINDOWS 10\RTR\RTR_3\RTR2020_CLASS_ASSIGNMENT\01_OPENGL\02_PP\01_WINDOWS\99_ASSIMP\LIB\ASSIMP-MASTER\TEST\UNIT\UTIOSYSTEM.CPP|F:\WINDOWS 10\RTR\RTR_3\RTR2020_CLASS_ASSIGNMENT\01_OPENGL\02_PP\01_WINDOWS\99_ASSIMP\LIB\ASSIMP-MASTER\TEST\UNIT\UTISSUES.CPP|F:\WINDOWS 10\RTR\RTR_3\RTR2020_CLASS_ASSIGNMENT\01_OPENGL\02_PP\01_WINDOWS\99_ASSIMP\LIB\ASSIMP-MASTER\TEST\UNIT\UTJOINVERTICES.CPP|F:\WINDOWS 10\RTR\RTR_3\RTR2020_CLASS_ASSIGNMENT\01_OPENGL\02_PP\01_WINDOWS\99_ASSIMP\LIB\ASSIMP-MASTER\TEST\UNIT\UTLIMITBONEWEIGHTS.CPP|F:\WINDOWS 10\RTR\RTR_3\RTR2020_CLASS_ASSIGNMENT\01_OPENGL\02_PP\01_WINDOWS\99_ASSIMP\LIB\ASSIMP-MASTER\TEST\UNIT\UTLWOIMPORTEXPORT.CPP|F:\WINDOWS 10\RTR\RTR_3\RTR2020_CLASS_ASSIGNMENT\01_OPENGL\02_PP\01_WINDOWS\99_ASSIMP\LIB\ASSIMP-MASTER\TEST\UNIT\UTLWSIMPORTEXPORT.CPP|F:\WINDOWS 10\RTR\RTR_3\RTR2020_CLASS_ASSIGNMENT\01_OPENGL\02_PP\01_WINDOWS\99_ASSIMP\LIB\ASSIMP-MASTER\TEST\UNIT\UTMATERIALSYSTEM.CPP|F:\WINDOWS 10\RTR\RTR_3\RTR2020_CLASS_ASSIGNMENT\01_OPENGL\02_PP\01_WINDOWS\99_ASSIMP\LIB\ASSIMP-MASTER\TEST\UNIT\UTMATRIX3X3.CPP|F:\WINDOWS 10\RTR\RTR_3\RTR2020_CLASS_ASSIGNMENT\01_OPENGL\02_PP\01_WINDOWS\99_ASSIMP\LIB\ASSIMP-MASTER\TEST\UNIT\UTMATRIX4X4.CPP|F:\WINDOWS 10\RTR\RTR_3\RTR2020_CLASS_ASSIGNMENT\01_OPENGL\02_PP\01_WINDOWS\99_ASSIMP\LIB\ASSIMP-MASTER\TEST\UNIT\UTMDCIMPORTEXPORT.CPP|F:\WINDOWS 10\RTR\RTR_3\RTR2020_CLASS_ASSIGNMENT\01_OPENGL\02_PP\01_WINDOWS\99_ASSIMP\LIB\ASSIMP-MASTER\TEST\UNIT\UTMETADATA.CPP|F:\WINDOWS 10\RTR\RTR_3\RTR2020_CLASS_ASSIGNMENT\01_OPENGL\02_PP\01_WINDOWS\99_ASSIMP\LIB\ASSIMP-MASTER\TEST\UNIT\UTOBJIMPORTEXPORT.CPP|F:\WINDOWS 10\RTR\RTR_3\RTR2020_CLASS_ASSIGNMENT\01_OPENGL\02_PP\01_WINDOWS\99_ASSIMP\LIB\ASSIMP-MASTER\TEST\UNIT\UTOBJTOOLS.CPP|F:\WINDOWS 10\RTR\RTR_3\RTR2020_CLASS_ASSIGNMENT\01_OPENGL\02_PP\01_WINDOWS\99_ASSIMP\LIB\ASSIMP-MASTER\TEST\UNIT\UTOPENGEXIMPORTEXPORT.CPP|F:\WINDOWS 10\RTR\RTR_3\RTR2020_CLASS_ASSIGNMENT\01_OPENGL\02_PP\01_WINDOWS\99_ASSIMP\LIB\ASSIMP-MASTER\TEST\UNIT\UTPLYIMPORTEXPORT.CPP|F:\WINDOWS 10\RTR\RTR_3\RTR2020_CLASS_ASSIGNMENT\01_OPENGL\02_PP\01_WINDOWS\99_ASSIMP\LIB\ASSIMP-MASTER\TEST\UNIT\UTPMXIMPORTER.CPP|F:\WINDOWS 10\RTR\RTR_3\RTR2020_CLASS_ASSIGNMENT\01_OPENGL\02_PP\01_WINDOWS\99_ASSIMP\LIB\ASSIMP-MASTER\TEST\UNIT\UTPRETRANSFORMVERTICES.CPP|F:\WINDOWS 10\RTR\RTR_3\RTR2020_CLASS_ASSIGNMENT\01_OPENGL\02_PP\01_WINDOWS\99_ASSIMP\LIB\ASSIMP-MASTER\TEST\UNIT\UTPROFILER.CPP|F:\WINDOWS 10\RTR\RTR_3\RTR2020_CLASS_ASSIGNMENT\01_OPENGL\02_PP\01_WINDOWS\99_ASSIMP\LIB\ASSIMP-MASTER\TEST\UNIT\UTQ3DIMPORTEXPORT.CPP|F:\WINDOWS 10\RTR\RTR_3\RTR2020_CLASS_ASSIGNMENT\01_OPENGL\02_PP\01_WINDOWS\99_ASSIMP\LIB\ASSIMP-MASTER\TEST\UNIT\UTREMOVECOMMENTS.CPP|F:\WINDOWS 10\RTR\RTR_3\RTR2020_CLASS_ASSIGNMENT\01_OPENGL\02_PP\01_WINDOWS\99_ASSIMP\LIB\ASSIMP-MASTER\TEST\UNIT\UTREMOVECOMPONENT.CPP|F:\WINDOWS 10\RTR\RTR_3\RTR2020_CLASS_ASSIGNMENT\01_OPENGL\02_PP\01_WINDOWS\99_ASSIMP\LIB\ASSIMP-MASTER\TEST\UNIT\UTREMOVEREDUNDANTMATERIALS.CPP|F:\WINDOWS 10\RTR\RTR_3\RTR2020_CLASS_ASSIGNMENT\01_OPENGL\02_PP\01_WINDOWS\99_ASSIMP\LIB\ASSIMP-MASTER\TEST\UNIT\UTREMOVEVCPROCESS.CPP|F:\WINDOWS 10\RTR\RTR_3\RTR2020_CLASS_ASSIGNMENT\01_OPENGL\02_PP\01_WINDOWS\99_ASSIMP\LIB\ASSIMP-MASTER\TEST\UNIT\UTSCALEPROCESS.CPP|F:\WINDOWS 10\RTR\RTR_3\RTR2020_CLASS_ASSIGNMENT\01_OPENGL\02_PP\01_WINDOWS\99_ASSIMP\LIB\ASSIMP-MASTER\TEST\UNIT\UTSCENECOMBINER.CPP|F:\WINDOWS 10\RTR\RTR_3\RTR2020_CLASS_ASSIGNMENT\01_OPENGL\02_PP\01_WINDOWS\99_ASSIMP\LIB\ASSIMP-MASTER\TEST\UNIT\UTSCENEPREPROCESSOR.CPP|F:\WINDOWS 10\RTR\RTR_3\RTR2020_CLASS_ASSIGNMENT\01_OPENGL\02_PP\01_WINDOWS\99_ASSIMP\LIB\ASSIMP-MASTER\TEST\UNIT\UTSHAREDPPDATA.CPP|F:\WINDOWS 10\RTR\RTR_3\RTR2020_CLASS_ASSIGNMENT\01_OPENGL\02_PP\01_WINDOWS\99_ASSIMP\LIB\ASSIMP-MASTER\TEST\UNIT\UTSIBIMPORTER.CPP|F:\WINDOWS 10\RTR\RTR_3\RTR2020_CLASS_ASSIGNMENT\01_OPENGL\02_PP\01_WINDOWS\99_ASSIMP\LIB\ASSIMP-MASTER\TEST\UNIT\UTSIMD.CPP|F:\WINDOWS 10\RTR\RTR_3\RTR2020_CLASS_ASSIGNMENT\01_OPENGL\02_PP\01_WINDOWS\99_ASSIMP\LIB\ASSIMP-MASTER\TEST\UNIT\UTSMDIMPORTEXPORT.CPP|F:\WINDOWS 10\RTR\RTR_3\RTR2020_CLASS_ASSIGNMENT\01_OPENGL\02_PP\01_WINDOWS\99_ASSIMP\LIB\ASSIMP-MASTER\TEST\UNIT\UTSORTBYPTYPE.CPP|F:\WINDOWS 10\RTR\RTR_3\RTR2020_CLASS_ASSIGNMENT\01_OPENGL\02_PP\01_WINDOWS\99_ASSIMP\LIB\ASSIMP-MASTER\TEST\UNIT\UTSPLITLARGEMESHES.CPP|F:\WINDOWS 10\RTR\RTR_3\RTR2020_CLASS_ASSIGNMENT\01_OPENGL\02_PP\01_WINDOWS\99_ASSIMP\LIB\ASSIMP-MASTER\TEST\UNIT\UTSTLIMPORTEXPORT.CPP|F:\WINDOWS 10\RTR\RTR_3\RTR2020_CLASS_ASSIGNMENT\01_OPENGL\02_PP\01_WINDOWS\99_ASSIMP\LIB\ASSIMP-MASTER\TEST\UNIT\UTSTRINGUTILS.CPP|F:\WINDOWS 10\RTR\RTR_3\RTR2020_CLASS_ASSIGNMENT\01_OPENGL\02_PP\01_WINDOWS\99_ASSIMP\LIB\ASSIMP-MASTER\TEST\UNIT\UTTARGETANIMATION.CPP|F:\WINDOWS 10\RTR\RTR_3\RTR2020_CLASS_ASSIGNMENT\01_OPENGL\02_PP\01_WINDOWS\99_ASSIMP\LIB\ASSIMP-MASTER\TEST\UNIT\UTTEXTURETRANSFORM.CPP|F:\WINDOWS 10\RTR\RTR_3\RTR2020_CLASS_ASSIGNMENT\01_OPENGL\02_PP\01_WINDOWS\99_ASSIMP\LIB\ASSIMP-MASTER\TEST\UNIT\UTTRIANGULATE.CPP|F:\WINDOWS 10\RTR\RTR_3\RTR2020_CLASS_ASSIGNMENT\01_OPENGL\02_PP\01_WINDOWS\99_ASSIMP\LIB\ASSIMP-MASTER\TEST\UNIT\UTTYPES.CPP|F:\WINDOWS 10\RTR\RTR_3\RTR2020_CLASS_ASSIGNMENT\01_OPENGL\02_PP\01_WINDOWS\99_ASSIMP\LIB\ASSIMP-MASTER\TEST\UNIT\UTVECTOR3.CPP|F:\WINDOWS 10\RTR\RTR_3\RTR2020_CLASS_ASSIGNMENT\01_OPENGL\02_PP\01_WINDOWS\99_ASSIMP\LIB\ASSIMP-MASTER\TEST\UNIT\UTVERSION.CPP|F:\WINDOWS 10\RTR\RTR_3\RTR2020_CLASS_ASSIGNMENT\01_OPENGL\02_PP\01_WINDOWS\99_ASSIMP\LIB\ASSIMP-MASTER\TEST\UNIT\UTVERTEXTRIANGLEADJACENCY.CPP|F:\WINDOWS 10\RTR\RTR_3\RTR2020_CLASS_ASSIGNMENT\01_OPENGL\02_PP\01_WINDOWS\99_ASSIMP\LIB\ASSIMP-MASTER\TEST\UNIT\UTX3DIMPORTEXPORT.CPP|F:\WINDOWS 10\RTR\RTR_3\RTR2020_CLASS_ASSIGNMENT\01_OPENGL\02_PP\01_WINDOWS\99_ASSIMP\LIB\ASSIMP-MASTER\TEST\UNIT\UTXIMPORTEREXPORTER.CPP
F:\WINDOWS 10\RTR\RTR_3\RTR2020_CLASS_ASSIGNMENT\01_OPENGL\02_PP\01_WINDOWS\99_ASSIMP\LIB\ASSIMP-MASTER\TEST\UNIT.DIR\DEBUG\ASSIMPAPITEST.OBJ
F:\WINDOWS 10\RTR\RTR_3\RTR2020_CLASS_ASSIGNMENT\01_OPENGL\02_PP\01_WINDOWS\99_ASSIMP\LIB\ASSIMP-MASTER\TEST\UNIT.DIR\DEBUG\UTDEFAULTIOSTREAM.OBJ
F:\WINDOWS 10\RTR\RTR_3\RTR2020_CLASS_ASSIGNMENT\01_OPENGL\02_PP\01_WINDOWS\99_ASSIMP\LIB\ASSIMP-MASTER\TEST\UNIT.DIR\DEBUG\UISCENE.OBJ
F:\WINDOWS 10\RTR\RTR_3\RTR2020_CLASS_ASSIGNMENT\01_OPENGL\02_PP\01_WINDOWS\99_ASSIMP\LIB\ASSIMP-MASTER\TEST\UNIT.DIR\DEBUG\UTIMPORTER.OBJ
F:\WINDOWS 10\RTR\RTR_3\RTR2020_CLASS_ASSIGNMENT\01_OPENGL\02_PP\01_WINDOWS\99_ASSIMP\LIB\ASSIMP-MASTER\TEST\UNIT.DIR\DEBUG\UTX3DIMPORTEXPORT.OBJ
F:\WINDOWS 10\RTR\RTR_3\RTR2020_CLASS_ASSIGNMENT\01_OPENGL\02_PP\01_WINDOWS\99_ASSIMP\LIB\ASSIMP-MASTER\TEST\UNIT.DIR\DEBUG\UTBLENDERWORK.OBJ
F:\WINDOWS 10\RTR\RTR_3\RTR2020_CLASS_ASSIGNMENT\01_OPENGL\02_PP\01_WINDOWS\99_ASSIMP\LIB\ASSIMP-MASTER\TEST\UNIT.DIR\DEBUG\UTQ3BSPFILEIMPORTEXPORT.OBJ
F:\WINDOWS 10\RTR\RTR_3\RTR2020_CLASS_ASSIGNMENT\01_OPENGL\02_PP\01_WINDOWS\99_ASSIMP\LIB\ASSIMP-MASTER\TEST\UNIT.DIR\DEBUG\UTRAWIMPORTEXPORT.OBJ
F:\WINDOWS 10\RTR\RTR_3\RTR2020_CLASS_ASSIGNMENT\01_OPENGL\02_PP\01_WINDOWS\99_ASSIMP\LIB\ASSIMP-MASTER\TEST\UNIT.DIR\DEBUG\UTREMOVEVCPROCESS.OBJ
F:\WINDOWS 10\RTR\RTR_3\RTR2020_CLASS_ASSIGNMENT\01_OPENGL\02_PP\01_WINDOWS\99_ASSIMP\LIB\ASSIMP-MASTER\TEST\UNIT.DIR\DEBUG\UTPRETRANSFORMVERTICES.OBJ
F:\WINDOWS 10\RTR\RTR_3\RTR2020_CLASS_ASSIGNMENT\01_OPENGL\02_PP\01_WINDOWS\99_ASSIMP\LIB\ASSIMP-MASTER\TEST\UNIT.DIR\DEBUG\ASSIMPAPITEST_AIQUATERNION.OBJ
F:\WINDOWS 10\RTR\RTR_3\RTR2020_CLASS_ASSIGNMENT\01_OPENGL\02_PP\01_WINDOWS\99_ASSIMP\LIB\ASSIMP-MASTER\TEST\UNIT.DIR\DEBUG\ABSTRACTIMPORTEXPORTBASE.OBJ
F:\WINDOWS 10\RTR\RTR_3\RTR2020_CLASS_ASSIGNMENT\01_OPENGL\02_PP\01_WINDOWS\99_ASSIMP\LIB\ASSIMP-MASTER\TEST\UNIT.DIR\DEBUG\UTLINESPLITTER.OBJ
F:\WINDOWS 10\RTR\RTR_3\RTR2020_CLASS_ASSIGNMENT\01_OPENGL\02_PP\01_WINDOWS\99_ASSIMP\LIB\ASSIMP-MASTER\TEST\UNIT.DIR\DEBUG\UTGLTF2IMPORTEXPORT.OBJ
F:\WINDOWS 10\RTR\RTR_3\RTR2020_CLASS_ASSIGNMENT\01_OPENGL\02_PP\01_WINDOWS\99_ASSIMP\LIB\ASSIMP-MASTER\TEST\UNIT.DIR\DEBUG\UTOPENGEXIMPORTEXPORT.OBJ
F:\WINDOWS 10\RTR\RTR_3\RTR2020_CLASS_ASSIGNMENT\01_OPENGL\02_PP\01_WINDOWS\99_ASSIMP\LIB\ASSIMP-MASTER\TEST\UNIT.DIR\DEBUG\UTB3DIMPORTEXPORT.OBJ
F:\WINDOWS 10\RTR\RTR_3\RTR2020_CLASS_ASSIGNMENT\01_OPENGL\02_PP\01_WINDOWS\99_ASSIMP\LIB\ASSIMP-MASTER\TEST\UNIT.DIR\DEBUG\UTMDLIMPORTER.OBJ
F:\WINDOWS 10\RTR\RTR_3\RTR2020_CLASS_ASSIGNMENT\01_OPENGL\02_PP\01_WINDOWS\99_ASSIMP\LIB\ASSIMP-MASTER\TEST\UNIT.DIR\DEBUG\UTGENNORMALS.OBJ
F:\WINDOWS 10\RTR\RTR_3\RTR2020_CLASS_ASSIGNMENT\01_OPENGL\02_PP\01_WINDOWS\99_ASSIMP\LIB\ASSIMP-MASTER\TEST\UNIT.DIR\DEBUG\UTFINDDEGENERATES.OBJ
F:\WINDOWS 10\RTR\RTR_3\RTR2020_CLASS_ASSIGNMENT\01_OPENGL\02_PP\01_WINDOWS\99_ASSIMP\LIB\ASSIMP-MASTER\TEST\UNIT.DIR\DEBUG\VERSION.OBJ
F:\WINDOWS 10\RTR\RTR_3\RTR2020_CLASS_ASSIGNMENT\01_OPENGL\02_PP\01_WINDOWS\99_ASSIMP\LIB\ASSIMP-MASTER\TEST\UNIT.DIR\DEBUG\ASSIMPAPITEST_AIVECTOR2D.OBJ
F:\WINDOWS 10\RTR\RTR_3\RTR2020_CLASS_ASSIGNMENT\01_OPENGL\02_PP\01_WINDOWS\99_ASSIMP\LIB\ASSIMP-MASTER\TEST\UNIT.DIR\DEBUG\UTPROFILER.OBJ
F:\WINDOWS 10\RTR\RTR_3\RTR2020_CLASS_ASSIGNMENT\01_OPENGL\02_PP\01_WINDOWS\99_ASSIMP\LIB\ASSIMP-MASTER\TEST\UNIT.DIR\DEBUG\UTLWSIMPORTEXPORT.OBJ
F:\WINDOWS 10\RTR\RTR_3\RTR2020_CLASS_ASSIGNMENT\01_OPENGL\02_PP\01_WINDOWS\99_ASSIMP\LIB\ASSIMP-MASTER\TEST\UNIT.DIR\DEBUG\UT3DSIMPORTEXPORT.OBJ
F:\WINDOWS 10\RTR\RTR_3\RTR2020_CLASS_ASSIGNMENT\01_OPENGL\02_PP\01_WINDOWS\99_ASSIMP\LIB\ASSIMP-MASTER\TEST\UNIT.DIR\DEBUG\UTOBJIMPORTEXPORT.OBJ
F:\WINDOWS 10\RTR\RTR_3\RTR2020_CLASS_ASSIGNMENT\01_OPENGL\02_PP\01_WINDOWS\99_ASSIMP\LIB\ASSIMP-MASTER\TEST\UNIT.DIR\DEBUG\UTCSMIMPORTEXPORT.OBJ
F:\WINDOWS 10\RTR\RTR_3\RTR2020_CLASS_ASSIGNMENT\01_OPENGL\02_PP\01_WINDOWS\99_ASSIMP\LIB\ASSIMP-MASTER\TEST\UNIT.DIR\DEBUG\UTXGLIMPORTEXPORT.OBJ
F:\WINDOWS 10\RTR\RTR_3\RTR2020_CLASS_ASSIGNMENT\01_OPENGL\02_PP\01_WINDOWS\99_ASSIMP\LIB\ASSIMP-MASTER\TEST\UNIT.DIR\DEBUG\UTVECTOR3.OBJ
F:\WINDOWS 10\RTR\RTR_3\RTR2020_CLASS_ASSIGNMENT\01_OPENGL\02_PP\01_WINDOWS\99_ASSIMP\LIB\ASSIMP-MASTER\TEST\UNIT.DIR\DEBUG\UTSPLITLARGEMESHES.OBJ
F:\WINDOWS 10\RTR\RTR_3\RTR2020_CLASS_ASSIGNMENT\01_OPENGL\02_PP\01_WINDOWS\99_ASSIMP\LIB\ASSIMP-MASTER\TEST\UNIT.DIR\DEBUG\UTISSUES.OBJ
F:\WINDOWS 10\RTR\RTR_3\RTR2020_CLASS_ASSIGNMENT\01_OPENGL\02_PP\01_WINDOWS\99_ASSIMP\LIB\ASSIMP-MASTER\TEST\UNIT.DIR\DEBUG\UTFASTATOF.OBJ
F:\WINDOWS 10\RTR\RTR_3\RTR2020_CLASS_ASSIGNMENT\01_OPENGL\02_PP\01_WINDOWS\99_ASSIMP\LIB\ASSIMP-MASTER\TEST\UNIT.DIR\DEBUG\UTASSERTHANDLER.OBJ
F:\WINDOWS 10\RTR\RTR_3\RTR2020_CLASS_ASSIGNMENT\01_OPENGL\02_PP\01_WINDOWS\99_ASSIMP\LIB\ASSIMP-MASTER\TEST\UNIT.DIR\DEBUG\UTHMPIMPORTEXPORT.OBJ
F:\WINDOWS 10\RTR\RTR_3\RTR2020_CLASS_ASSIGNMENT\01_OPENGL\02_PP\01_WINDOWS\99_ASSIMP\LIB\ASSIMP-MASTER\TEST\UNIT.DIR\DEBUG\UTD3MFIMPORTEXPORT.OBJ
F:\WINDOWS 10\RTR\RTR_3\RTR2020_CLASS_ASSIGNMENT\01_OPENGL\02_PP\01_WINDOWS\99_ASSIMP\LIB\ASSIMP-MASTER\TEST\UNIT.DIR\DEBUG\UTBLENDIMPORTAREALIGHT.OBJ
F:\WINDOWS 10\RTR\RTR_3\RTR2020_CLASS_ASSIGNMENT\01_OPENGL\02_PP\01_WINDOWS\99_ASSIMP\LIB\ASSIMP-MASTER\TEST\UNIT.DIR\DEBUG\UTCOBIMPORTEXPORT.OBJ
F:\WINDOWS 10\RTR\RTR_3\RTR2020_CLASS_ASSIGNMENT\01_OPENGL\02_PP\01_WINDOWS\99_ASSIMP\LIB\ASSIMP-MASTER\TEST\UNIT.DIR\DEBUG\UTMDLIMPORTER_HL1_NODES.OBJ
F:\WINDOWS 10\RTR\RTR_3\RTR2020_CLASS_ASSIGNMENT\01_OPENGL\02_PP\01_WINDOWS\99_ASSIMP\LIB\ASSIMP-MASTER\TEST\UNIT.DIR\DEBUG\UTARMATUREPOPULATE.OBJ
F:\WINDOWS 10\RTR\RTR_3\RTR2020_CLASS_ASSIGNMENT\01_OPENGL\02_PP\01_WINDOWS\99_ASSIMP\LIB\ASSIMP-MASTER\TEST\UNIT.DIR\DEBUG\UTSCENECOMBINER.OBJ
F:\WINDOWS 10\RTR\RTR_3\RTR2020_CLASS_ASSIGNMENT\01_OPENGL\02_PP\01_WINDOWS\99_ASSIMP\LIB\ASSIMP-MASTER\TEST\UNIT.DIR\DEBUG\ASSIMPAPITEST_AIMATRIX4X4.OBJ
F:\WINDOWS 10\RTR\RTR_3\RTR2020_CLASS_ASSIGNMENT\01_OPENGL\02_PP\01_WINDOWS\99_ASSIMP\LIB\ASSIMP-MASTER\TEST\UNIT.DIR\DEBUG\UTVERSION.OBJ
F:\WINDOWS 10\RTR\RTR_3\RTR2020_CLASS_ASSIGNMENT\01_OPENGL\02_PP\01_WINDOWS\99_ASSIMP\LIB\ASSIMP-MASTER\TEST\UNIT.DIR\DEBUG\UTBASE64.OBJ
F:\WINDOWS 10\RTR\RTR_3\RTR2020_CLASS_ASSIGNMENT\01_OPENGL\02_PP\01_WINDOWS\99_ASSIMP\LIB\ASSIMP-MASTER\TEST\UNIT.DIR\DEBUG\UTEXPORTER.OBJ
F:\WINDOWS 10\RTR\RTR_3\RTR2020_CLASS_ASSIGNMENT\01_OPENGL\02_PP\01_WINDOWS\99_ASSIMP\LIB\ASSIMP-MASTER\TEST\UNIT.DIR\DEBUG\UTXIMPORTEREXPORTER.OBJ
F:\WINDOWS 10\RTR\RTR_3\RTR2020_CLASS_ASSIGNMENT\01_OPENGL\02_PP\01_WINDOWS\99_ASSIMP\LIB\ASSIMP-MASTER\TEST\UNIT.DIR\DEBUG\UTBLENDERIMPORTEXPORT.OBJ
F:\WINDOWS 10\RTR\RTR_3\RTR2020_CLASS_ASSIGNMENT\01_OPENGL\02_PP\01_WINDOWS\99_ASSIMP\LIB\ASSIMP-MASTER\TEST\UNIT.DIR\DEBUG\UTOGREIMPORTEXPORT.OBJ
F:\WINDOWS 10\RTR\RTR_3\RTR2020_CLASS_ASSIGNMENT\01_OPENGL\02_PP\01_WINDOWS\99_ASSIMP\LIB\ASSIMP-MASTER\TEST\UNIT.DIR\DEBUG\UTTERRAGENIMPORTEXPORT.OBJ
F:\WINDOWS 10\RTR\RTR_3\RTR2020_CLASS_ASSIGNMENT\01_OPENGL\02_PP\01_WINDOWS\99_ASSIMP\LIB\ASSIMP-MASTER\TEST\UNIT.DIR\DEBUG\UTREMOVEREDUNDANTMATERIALS.OBJ
F:\WINDOWS 10\RTR\RTR_3\RTR2020_CLASS_ASSIGNMENT\01_OPENGL\02_PP\01_WINDOWS\99_ASSIMP\LIB\ASSIMP-MASTER\TEST\UNIT.DIR\DEBUG\UTSCENEPREPROCESSOR.OBJ
F:\WINDOWS 10\RTR\RTR_3\RTR2020_CLASS_ASSIGNMENT\01_OPENGL\02_PP\01_WINDOWS\99_ASSIMP\LIB\ASSIMP-MASTER\TEST\UNIT.DIR\DEBUG\UTIOSTREAMBUFFER.OBJ
F:\WINDOWS 10\RTR\RTR_3\RTR2020_CLASS_ASSIGNMENT\01_OPENGL\02_PP\01_WINDOWS\99_ASSIMP\LIB\ASSIMP-MASTER\TEST\UNIT.DIR\DEBUG\SCENEDIFFER.OBJ
F:\WINDOWS 10\RTR\RTR_3\RTR2020_CLASS_ASSIGNMENT\01_OPENGL\02_PP\01_WINDOWS\99_ASSIMP\LIB\ASSIMP-MASTER\TEST\UNIT.DIR\DEBUG\UTXMLPARSER.OBJ
F:\WINDOWS 10\RTR\RTR_3\RTR2020_CLASS_ASSIGNMENT\01_OPENGL\02_PP\01_WINDOWS\99_ASSIMP\LIB\ASSIMP-MASTER\TEST\UNIT.DIR\DEBUG\UTACIMPORTEXPORT.OBJ
F:\WINDOWS 10\RTR\RTR_3\RTR2020_CLASS_ASSIGNMENT\01_OPENGL\02_PP\01_WINDOWS\99_ASSIMP\LIB\ASSIMP-MASTER\TEST\UNIT.DIR\DEBUG\UTPLYIMPORTEXPORT.OBJ
F:\WINDOWS 10\RTR\RTR_3\RTR2020_CLASS_ASSIGNMENT\01_OPENGL\02_PP\01_WINDOWS\99_ASSIMP\LIB\ASSIMP-MASTER\TEST\UNIT.DIR\DEBUG\UTCOLLADAIMPORTEXPORT.OBJ
F:\WINDOWS 10\RTR\RTR_3\RTR2020_CLASS_ASSIGNMENT\01_OPENGL\02_PP\01_WINDOWS\99_ASSIMP\LIB\ASSIMP-MASTER\TEST\UNIT.DIR\DEBUG\UTMD5IMPORTER.OBJ
F:\WINDOWS 10\RTR\RTR_3\RTR2020_CLASS_ASSIGNMENT\01_OPENGL\02_PP\01_WINDOWS\99_ASSIMP\LIB\ASSIMP-MASTER\TEST\UNIT.DIR\DEBUG\UTFIXINFACINGNORMALS.OBJ
F:\WINDOWS 10\RTR\RTR_3\RTR2020_CLASS_ASSIGNMENT\01_OPENGL\02_PP\01_WINDOWS\99_ASSIMP\LIB\ASSIMP-MASTER\TEST\UNIT.DIR\DEBUG\UTVERTEXTRIANGLEADJACENCY.OBJ
F:\WINDOWS 10\RTR\RTR_3\RTR2020_CLASS_ASSIGNMENT\01_OPENGL\02_PP\01_WINDOWS\99_ASSIMP\LIB\ASSIMP-MASTER\TEST\UNIT.DIR\DEBUG\GTEST-ALL.OBJ
F:\WINDOWS 10\RTR\RTR_3\RTR2020_CLASS_ASSIGNMENT\01_OPENGL\02_PP\01_WINDOWS\99_ASSIMP\LIB\ASSIMP-MASTER\TEST\UNIT.DIR\DEBUG\UTSIMD.OBJ
F:\WINDOWS 10\RTR\RTR_3\RTR2020_CLASS_ASSIGNMENT\01_OPENGL\02_PP\01_WINDOWS\99_ASSIMP\LIB\ASSIMP-MASTER\TEST\UNIT.DIR\DEBUG\MATHTEST.OBJ
F:\WINDOWS 10\RTR\RTR_3\RTR2020_CLASS_ASSIGNMENT\01_OPENGL\02_PP\01_WINDOWS\99_ASSIMP\LIB\ASSIMP-MASTER\TEST\UNIT.DIR\DEBUG\UTMESH.OBJ
F:\WINDOWS 10\RTR\RTR_3\RTR2020_CLASS_ASSIGNMENT\01_OPENGL\02_PP\01_WINDOWS\99_ASSIMP\LIB\ASSIMP-MASTER\TEST\UNIT.DIR\DEBUG\UTGLTFIMPORTEXPORT.OBJ
F:\WINDOWS 10\RTR\RTR_3\RTR2020_CLASS_ASSIGNMENT\01_OPENGL\02_PP\01_WINDOWS\99_ASSIMP\LIB\ASSIMP-MASTER\TEST\UNIT.DIR\DEBUG\UTSTLIMPORTEXPORT.OBJ
F:\WINDOWS 10\RTR\RTR_3\RTR2020_CLASS_ASSIGNMENT\01_OPENGL\02_PP\01_WINDOWS\99_ASSIMP\LIB\ASSIMP-MASTER\TEST\UNIT.DIR\DEBUG\UTBLENDIMPORTMATERIALS.OBJ
F:\WINDOWS 10\RTR\RTR_3\RTR2020_CLASS_ASSIGNMENT\01_OPENGL\02_PP\01_WINDOWS\99_ASSIMP\LIB\ASSIMP-MASTER\TEST\UNIT.DIR\DEBUG\UTOFFIMPORTEXPORT.OBJ
F:\WINDOWS 10\RTR\RTR_3\RTR2020_CLASS_ASSIGNMENT\01_OPENGL\02_PP\01_WINDOWS\99_ASSIMP\LIB\ASSIMP-MASTER\TEST\UNIT.DIR\DEBUG\UTMATRIX4X4.OBJ
F:\WINDOWS 10\RTR\RTR_3\RTR2020_CLASS_ASSIGNMENT\01_OPENGL\02_PP\01_WINDOWS\99_ASSIMP\LIB\ASSIMP-MASTER\TEST\UNIT.DIR\DEBUG\UTJOINVERTICES.OBJ
F:\WINDOWS 10\RTR\RTR_3\RTR2020_CLASS_ASSIGNMENT\01_OPENGL\02_PP\01_WINDOWS\99_ASSIMP\LIB\ASSIMP-MASTER\TEST\UNIT.DIR\DEBUG\UTGENBOUNDINGBOXESPROCESS.OBJ
F:\WINDOWS 10\RTR\RTR_3\RTR2020_CLASS_ASSIGNMENT\01_OPENGL\02_PP\01_WINDOWS\99_ASSIMP\LIB\ASSIMP-MASTER\TEST\UNIT.DIR\DEBUG\ASSIMPAPITEST_AIMATRIX3X3.OBJ
F:\WINDOWS 10\RTR\RTR_3\RTR2020_CLASS_ASSIGNMENT\01_OPENGL\02_PP\01_WINDOWS\99_ASSIMP\LIB\ASSIMP-MASTER\TEST\UNIT.DIR\DEBUG\UTTYPES.OBJ
F:\WINDOWS 10\RTR\RTR_3\RTR2020_CLASS_ASSIGNMENT\01_OPENGL\02_PP\01_WINDOWS\99_ASSIMP\LIB\ASSIMP-MASTER\TEST\UNIT.DIR\DEBUG\UTSTANDARDSHAPES.OBJ
F:\WINDOWS 10\RTR\RTR_3\RTR2020_CLASS_ASSIGNMENT\01_OPENGL\02_PP\01_WINDOWS\99_ASSIMP\LIB\ASSIMP-MASTER\TEST\UNIT.DIR\DEBUG\UTIFCIMPORTEXPORT.OBJ
F:\WINDOWS 10\RTR\RTR_3\RTR2020_CLASS_ASSIGNMENT\01_OPENGL\02_PP\01_WINDOWS\99_ASSIMP\LIB\ASSIMP-MASTER\TEST\UNIT.DIR\DEBUG\UTQ3DIMPORTEXPORT.OBJ
F:\WINDOWS 10\RTR\RTR_3\RTR2020_CLASS_ASSIGNMENT\01_OPENGL\02_PP\01_WINDOWS\99_ASSIMP\LIB\ASSIMP-MASTER\TEST\UNIT.DIR\DEBUG\UTBLENDERINTERMEDIATE.OBJ
F:\WINDOWS 10\RTR\RTR_3\RTR2020_CLASS_ASSIGNMENT\01_OPENGL\02_PP\01_WINDOWS\99_ASSIMP\LIB\ASSIMP-MASTER\TEST\UNIT.DIR\DEBUG\UTNFFIMPORTEXPORT.OBJ
F:\WINDOWS 10\RTR\RTR_3\RTR2020_CLASS_ASSIGNMENT\01_OPENGL\02_PP\01_WINDOWS\99_ASSIMP\LIB\ASSIMP-MASTER\TEST\UNIT.DIR\DEBUG\UTMATERIALSYSTEM.OBJ
F:\WINDOWS 10\RTR\RTR_3\RTR2020_CLASS_ASSIGNMENT\01_OPENGL\02_PP\01_WINDOWS\99_ASSIMP\LIB\ASSIMP-MASTER\TEST\UNIT.DIR\DEBUG\UTREMOVECOMMENTS.OBJ
F:\WINDOWS 10\RTR\RTR_3\RTR2020_CLASS_ASSIGNMENT\01_OPENGL\02_PP\01_WINDOWS\99_ASSIMP\LIB\ASSIMP-MASTER\TEST\UNIT.DIR\DEBUG\UTSORTBYPTYPE.OBJ
F:\WINDOWS 10\RTR\RTR_3\RTR2020_CLASS_ASSIGNMENT\01_OPENGL\02_PP\01_WINDOWS\99_ASSIMP\LIB\ASSIMP-MASTER\TEST\UNIT.DIR\DEBUG\UTANIM.OBJ
F:\WINDOWS 10\RTR\RTR_3\RTR2020_CLASS_ASSIGNMENT\01_OPENGL\02_PP\01_WINDOWS\99_ASSIMP\LIB\ASSIMP-MASTER\TEST\UNIT.DIR\DEBUG\UTMETADATA.OBJ
F:\WINDOWS 10\RTR\RTR_3\RTR2020_CLASS_ASSIGNMENT\01_OPENGL\02_PP\01_WINDOWS\99_ASSIMP\LIB\ASSIMP-MASTER\TEST\UNIT.DIR\DEBUG\UTASSXMLIMPORTEXPORT.OBJ
F:\WINDOWS 10\RTR\RTR_3\RTR2020_CLASS_ASSIGNMENT\01_OPENGL\02_PP\01_WINDOWS\99_ASSIMP\LIB\ASSIMP-MASTER\TEST\UNIT.DIR\DEBUG\UT3DIMPORTEXPORT.OBJ
F:\WINDOWS 10\RTR\RTR_3\RTR2020_CLASS_ASSIGNMENT\01_OPENGL\02_PP\01_WINDOWS\99_ASSIMP\LIB\ASSIMP-MASTER\TEST\UNIT.DIR\DEBUG\UTPMXIMPORTER.OBJ
F:\WINDOWS 10\RTR\RTR_3\RTR2020_CLASS_ASSIGNMENT\01_OPENGL\02_PP\01_WINDOWS\99_ASSIMP\LIB\ASSIMP-MASTER\TEST\UNIT.DIR\DEBUG\UTCOLLADAEXPORT.OBJ
F:\WINDOWS 10\RTR\RTR_3\RTR2020_CLASS_ASSIGNMENT\01_OPENGL\02_PP\01_WINDOWS\99_ASSIMP\LIB\ASSIMP-MASTER\TEST\UNIT.DIR\DEBUG\UTMD2IMPORTER.OBJ
F:\WINDOWS 10\RTR\RTR_3\RTR2020_CLASS_ASSIGNMENT\01_OPENGL\02_PP\01_WINDOWS\99_ASSIMP\LIB\ASSIMP-MASTER\TEST\UNIT.DIR\DEBUG\UTIMPROVECACHELOCALITY.OBJ
F:\WINDOWS 10\RTR\RTR_3\RTR2020_CLASS_ASSIGNMENT\01_OPENGL\02_PP\01_WINDOWS\99_ASSIMP\LIB\ASSIMP-MASTER\TEST\UNIT.DIR\DEBUG\UTREMOVECOMPONENT.OBJ
F:\WINDOWS 10\RTR\RTR_3\RTR2020_CLASS_ASSIGNMENT\01_OPENGL\02_PP\01_WINDOWS\99_ASSIMP\LIB\ASSIMP-MASTER\TEST\UNIT.DIR\DEBUG\BASE64.OBJ
F:\WINDOWS 10\RTR\RTR_3\RTR2020_CLASS_ASSIGNMENT\01_OPENGL\02_PP\01_WINDOWS\99_ASSIMP\LIB\ASSIMP-MASTER\TEST\UNIT.DIR\DEBUG\ASSIMPAPITEST_AIVECTOR3D.OBJ
F:\WINDOWS 10\RTR\RTR_3\RTR2020_CLASS_ASSIGNMENT\01_OPENGL\02_PP\01_WINDOWS\99_ASSIMP\LIB\ASSIMP-MASTER\TEST\UNIT.DIR\DEBUG\UTSHAREDPPDATA.OBJ
F:\WINDOWS 10\RTR\RTR_3\RTR2020_CLASS_ASSIGNMENT\01_OPENGL\02_PP\01_WINDOWS\99_ASSIMP\LIB\ASSIMP-MASTER\TEST\UNIT.DIR\DEBUG\UTLWOIMPORTEXPORT.OBJ
F:\WINDOWS 10\RTR\RTR_3\RTR2020_CLASS_ASSIGNMENT\01_OPENGL\02_PP\01_WINDOWS\99_ASSIMP\LIB\ASSIMP-MASTER\TEST\UNIT.DIR\DEBUG\UTAMFIMPORTEXPORT.OBJ
F:\WINDOWS 10\RTR\RTR_3\RTR2020_CLASS_ASSIGNMENT\01_OPENGL\02_PP\01_WINDOWS\99_ASSIMP\LIB\ASSIMP-MASTER\TEST\UNIT.DIR\DEBUG\UTOBJTOOLS.OBJ
F:\WINDOWS 10\RTR\RTR_3\RTR2020_CLASS_ASSIGNMENT\01_OPENGL\02_PP\01_WINDOWS\99_ASSIMP\LIB\ASSIMP-MASTER\TEST\UNIT.DIR\DEBUG\UTMDCIMPORTEXPORT.OBJ
F:\WINDOWS 10\RTR\RTR_3\RTR2020_CLASS_ASSIGNMENT\01_OPENGL\02_PP\01_WINDOWS\99_ASSIMP\LIB\ASSIMP-MASTER\TEST\UNIT.DIR\DEBUG\UTMDLIMPORTER_HL1_IMPORTSETTINGS.OBJ
F:\WINDOWS 10\RTR\RTR_3\RTR2020_CLASS_ASSIGNMENT\01_OPENGL\02_PP\01_WINDOWS\99_ASSIMP\LIB\ASSIMP-MASTER\TEST\UNIT.DIR\DEBUG\UTTRIANGULATE.OBJ
F:\WINDOWS 10\RTR\RTR_3\RTR2020_CLASS_ASSIGNMENT\01_OPENGL\02_PP\01_WINDOWS\99_ASSIMP\LIB\ASSIMP-MASTER\TEST\UNIT.DIR\DEBUG\UTFINDINVALIDDATA.OBJ
F:\WINDOWS 10\RTR\RTR_3\RTR2020_CLASS_ASSIGNMENT\01_OPENGL\02_PP\01_WINDOWS\99_ASSIMP\LIB\ASSIMP-MASTER\TEST\UNIT.DIR\DEBUG\UTIOSYSTEM.OBJ
F:\WINDOWS 10\RTR\RTR_3\RTR2020_CLASS_ASSIGNMENT\01_OPENGL\02_PP\01_WINDOWS\99_ASSIMP\LIB\ASSIMP-MASTER\TEST\UNIT.DIR\DEBUG\UTBATCHLOADER.OBJ
F:\WINDOWS 10\RTR\RTR_3\RTR2020_CLASS_ASSIGNMENT\01_OPENGL\02_PP\01_WINDOWS\99_ASSIMP\LIB\ASSIMP-MASTER\TEST\UNIT.DIR\DEBUG\UTSPATIALSORT.OBJ
F:\WINDOWS 10\RTR\RTR_3\RTR2020_CLASS_ASSIGNMENT\01_OPENGL\02_PP\01_WINDOWS\99_ASSIMP\LIB\ASSIMP-MASTER\TEST\UNIT.DIR\DEBUG\UTFBXIMPORTEREXPORTER.OBJ
F:\WINDOWS 10\RTR\RTR_3\RTR2020_CLASS_ASSIGNMENT\01_OPENGL\02_PP\01_WINDOWS\99_ASSIMP\LIB\ASSIMP-MASTER\TEST\UNIT.DIR\DEBUG\UTDXFIMPORTEREXPORTER.OBJ
F:\WINDOWS 10\RTR\RTR_3\RTR2020_CLASS_ASSIGNMENT\01_OPENGL\02_PP\01_WINDOWS\99_ASSIMP\LIB\ASSIMP-MASTER\TEST\UNIT.DIR\DEBUG\UTBVHIMPORTEXPORT.OBJ
F:\WINDOWS 10\RTR\RTR_3\RTR2020_CLASS_ASSIGNMENT\01_OPENGL\02_PP\01_WINDOWS\99_ASSIMP\LIB\ASSIMP-MASTER\TEST\UNIT.DIR\DEBUG\UTASSJSONIMPORTEXPORT.OBJ
F:\WINDOWS 10\RTR\RTR_3\RTR2020_CLASS_ASSIGNMENT\01_OPENGL\02_PP\01_WINDOWS\99_ASSIMP\LIB\ASSIMP-MASTER\TEST\UNIT.DIR\DEBUG\UTMATRIX3X3.OBJ
F:\WINDOWS 10\RTR\RTR_3\RTR2020_CLASS_ASSIGNMENT\01_OPENGL\02_PP\01_WINDOWS\99_ASSIMP\LIB\ASSIMP-MASTER\TEST\UNIT.DIR\DEBUG\UTSCALEPROCESS.OBJ
F:\WINDOWS 10\RTR\RTR_3\RTR2020_CLASS_ASSIGNMENT\01_OPENGL\02_PP\01_WINDOWS\99_ASSIMP\LIB\ASSIMP-MASTER\TEST\UNIT.DIR\DEBUG\UTTARGETANIMATION.OBJ
F:\WINDOWS 10\RTR\RTR_3\RTR2020_CLASS_ASSIGNMENT\01_OPENGL\02_PP\01_WINDOWS\99_ASSIMP\LIB\ASSIMP-MASTER\TEST\UNIT.DIR\DEBUG\MAIN.OBJ
F:\WINDOWS 10\RTR\RTR_3\RTR2020_CLASS_ASSIGNMENT\01_OPENGL\02_PP\01_WINDOWS\99_ASSIMP\LIB\ASSIMP-MASTER\TEST\UNIT.DIR\DEBUG\UTHASH.OBJ
F:\WINDOWS 10\RTR\RTR_3\RTR2020_CLASS_ASSIGNMENT\01_OPENGL\02_PP\01_WINDOWS\99_ASSIMP\LIB\ASSIMP-MASTER\TEST\UNIT.DIR\DEBUG\UTSTRINGUTILS.OBJ
F:\WINDOWS 10\RTR\RTR_3\RTR2020_CLASS_ASSIGNMENT\01_OPENGL\02_PP\01_WINDOWS\99_ASSIMP\LIB\ASSIMP-MASTER\TEST\UNIT.DIR\DEBUG\UTSMDIMPORTEXPORT.OBJ
F:\WINDOWS 10\RTR\RTR_3\RTR2020_CLASS_ASSIGNMENT\01_OPENGL\02_PP\01_WINDOWS\99_ASSIMP\LIB\ASSIMP-MASTER\TEST\UNIT.DIR\DEBUG\UTASEIMPORTEXPORT.OBJ
F:\WINDOWS 10\RTR\RTR_3\RTR2020_CLASS_ASSIGNMENT\01_OPENGL\02_PP\01_WINDOWS\99_ASSIMP\LIB\ASSIMP-MASTER\TEST\UNIT.DIR\DEBUG\UTSIBIMPORTER.OBJ
F:\WINDOWS 10\RTR\RTR_3\RTR2020_CLASS_ASSIGNMENT\01_OPENGL\02_PP\01_WINDOWS\99_ASSIMP\LIB\ASSIMP-MASTER\TEST\UNIT.DIR\DEBUG\UTASSBINIMPORTEXPORT.OBJ
F:\WINDOWS 10\RTR\RTR_3\RTR2020_CLASS_ASSIGNMENT\01_OPENGL\02_PP\01_WINDOWS\99_ASSIMP\LIB\ASSIMP-MASTER\TEST\UNIT.DIR\DEBUG\UTMDLIMPORTER_HL1_MATERIALS.OBJ
F:\WINDOWS 10\RTR\RTR_3\RTR2020_CLASS_ASSIGNMENT\01_OPENGL\02_PP\01_WINDOWS\99_ASSIMP\LIB\ASSIMP-MASTER\TEST\UNIT.DIR\DEBUG\UTTEXTURETRANSFORM.OBJ
F:\WINDOWS 10\RTR\RTR_3\RTR2020_CLASS_ASSIGNMENT\01_OPENGL\02_PP\01_WINDOWS\99_ASSIMP\LIB\ASSIMP-MASTER\TEST\UNIT.DIR\DEBUG\UTLIMITBONEWEIGHTS.OBJ
^F:\WINDOWS 10\RTR\RTR_3\RTR2020_CLASS_ASSIGNMENT\01_OPENGL\02_PP\01_WINDOWS\99_ASSIMP\LIB\ASSIMP-MASTER\TEST\UNIT\MAIN.CPP
F:\WINDOWS 10\RTR\RTR_3\RTR2020_CLASS_ASSIGNMENT\01_OPENGL\02_PP\01_WINDOWS\99_ASSIMP\LIB\ASSIMP-MASTER\TEST\UNIT.DIR\DEBUG\VC143.PDB
^F:\WINDOWS 10\RTR\RTR_3\RTR2020_CLASS_ASSIGNMENT\01_OPENGL\02_PP\01_WINDOWS\99_ASSIMP\LIB\ASSIMP-MASTER\CODE\COMMON\VERSION.CPP
F:\WINDOWS 10\RTR\RTR_3\RTR2020_CLASS_ASSIGNMENT\01_OPENGL\02_PP\01_WINDOWS\99_ASSIMP\LIB\ASSIMP-MASTER\TEST\UNIT.DIR\DEBUG\VC143.PDB
^F:\WINDOWS 10\RTR\RTR_3\RTR2020_CLASS_ASSIGNMENT\01_OPENGL\02_PP\01_WINDOWS\99_ASSIMP\LIB\ASSIMP-MASTER\CODE\COMMON\BASE64.CPP
F:\WINDOWS 10\RTR\RTR_3\RTR2020_CLASS_ASSIGNMENT\01_OPENGL\02_PP\01_WINDOWS\99_ASSIMP\LIB\ASSIMP-MASTER\TEST\UNIT.DIR\DEBUG\VC143.PDB
^F:\WINDOWS 10\RTR\RTR_3\RTR2020_CLASS_ASSIGNMENT\01_OPENGL\02_PP\01_WINDOWS\99_ASSIMP\LIB\ASSIMP-MASTER\TEST\UNIT\UTSIMD.CPP
F:\WINDOWS 10\RTR\RTR_3\RTR2020_CLASS_ASSIGNMENT\01_OPENGL\02_PP\01_WINDOWS\99_ASSIMP\LIB\ASSIMP-MASTER\TEST\UNIT.DIR\DEBUG\VC143.PDB
^F:\WINDOWS 10\RTR\RTR_3\RTR2020_CLASS_ASSIGNMENT\01_OPENGL\02_PP\01_WINDOWS\99_ASSIMP\LIB\ASSIMP-MASTER\TEST\UNIT\UTIOSYSTEM.CPP
F:\WINDOWS 10\RTR\RTR_3\RTR2020_CLASS_ASSIGNMENT\01_OPENGL\02_PP\01_WINDOWS\99_ASSIMP\LIB\ASSIMP-MASTER\TEST\UNIT.DIR\DEBUG\VC143.PDB
^F:\WINDOWS 10\RTR\RTR_3\RTR2020_CLASS_ASSIGNMENT\01_OPENGL\02_PP\01_WINDOWS\99_ASSIMP\LIB\ASSIMP-MASTER\TEST\UNIT\UTIOSTREAMBUFFER.CPP
F:\WINDOWS 10\RTR\RTR_3\RTR2020_CLASS_ASSIGNMENT\01_OPENGL\02_PP\01_WINDOWS\99_ASSIMP\LIB\ASSIMP-MASTER\TEST\UNIT.DIR\DEBUG\VC143.PDB
^F:\WINDOWS 10\RTR\RTR_3\RTR2020_CLASS_ASSIGNMENT\01_OPENGL\02_PP\01_WINDOWS\99_ASSIMP\LIB\ASSIMP-MASTER\TEST\UNIT\UTISSUES.CPP
F:\WINDOWS 10\RTR\RTR_3\RTR2020_CLASS_ASSIGNMENT\01_OPENGL\02_PP\01_WINDOWS\99_ASSIMP\LIB\ASSIMP-MASTER\TEST\UNIT.DIR\DEBUG\VC143.PDB
^F:\WINDOWS 10\RTR\RTR_3\RTR2020_CLASS_ASSIGNMENT\01_OPENGL\02_PP\01_WINDOWS\99_ASSIMP\LIB\ASSIMP-MASTER\TEST\UNIT\UTANIM.CPP
F:\WINDOWS 10\RTR\RTR_3\RTR2020_CLASS_ASSIGNMENT\01_OPENGL\02_PP\01_WINDOWS\99_ASSIMP\LIB\ASSIMP-MASTER\TEST\UNIT.DIR\DEBUG\VC143.PDB
^F:\WINDOWS 10\RTR\RTR_3\RTR2020_CLASS_ASSIGNMENT\01_OPENGL\02_PP\01_WINDOWS\99_ASSIMP\LIB\ASSIMP-MASTER\TEST\UNIT\ASSIMPAPITEST.CPP
F:\WINDOWS 10\RTR\RTR_3\RTR2020_CLASS_ASSIGNMENT\01_OPENGL\02_PP\01_WINDOWS\99_ASSIMP\LIB\ASSIMP-MASTER\TEST\UNIT.DIR\DEBUG\VC143.PDB
^F:\WINDOWS 10\RTR\RTR_3\RTR2020_CLASS_ASSIGNMENT\01_OPENGL\02_PP\01_WINDOWS\99_ASSIMP\LIB\ASSIMP-MASTER\TEST\UNIT\ASSIMPAPITEST_AIMATRIX3X3.CPP
F:\WINDOWS 10\RTR\RTR_3\RTR2020_CLASS_ASSIGNMENT\01_OPENGL\02_PP\01_WINDOWS\99_ASSIMP\LIB\ASSIMP-MASTER\TEST\UNIT.DIR\DEBUG\VC143.PDB
^F:\WINDOWS 10\RTR\RTR_3\RTR2020_CLASS_ASSIGNMENT\01_OPENGL\02_PP\01_WINDOWS\99_ASSIMP\LIB\ASSIMP-MASTER\TEST\UNIT\ASSIMPAPITEST_AIMATRIX4X4.CPP
F:\WINDOWS 10\RTR\RTR_3\RTR2020_CLASS_ASSIGNMENT\01_OPENGL\02_PP\01_WINDOWS\99_ASSIMP\LIB\ASSIMP-MASTER\TEST\UNIT.DIR\DEBUG\VC143.PDB
^F:\WINDOWS 10\RTR\RTR_3\RTR2020_CLASS_ASSIGNMENT\01_OPENGL\02_PP\01_WINDOWS\99_ASSIMP\LIB\ASSIMP-MASTER\TEST\UNIT\ASSIMPAPITEST_AIQUATERNION.CPP
F:\WINDOWS 10\RTR\RTR_3\RTR2020_CLASS_ASSIGNMENT\01_OPENGL\02_PP\01_WINDOWS\99_ASSIMP\LIB\ASSIMP-MASTER\TEST\UNIT.DIR\DEBUG\VC143.PDB
^F:\WINDOWS 10\RTR\RTR_3\RTR2020_CLASS_ASSIGNMENT\01_OPENGL\02_PP\01_WINDOWS\99_ASSIMP\LIB\ASSIMP-MASTER\TEST\UNIT\ASSIMPAPITEST_AIVECTOR2D.CPP
F:\WINDOWS 10\RTR\RTR_3\RTR2020_CLASS_ASSIGNMENT\01_OPENGL\02_PP\01_WINDOWS\99_ASSIMP\LIB\ASSIMP-MASTER\TEST\UNIT.DIR\DEBUG\VC143.PDB
^F:\WINDOWS 10\RTR\RTR_3\RTR2020_CLASS_ASSIGNMENT\01_OPENGL\02_PP\01_WINDOWS\99_ASSIMP\LIB\ASSIMP-MASTER\TEST\UNIT\ASSIMPAPITEST_AIVECTOR3D.CPP
F:\WINDOWS 10\RTR\RTR_3\RTR2020_CLASS_ASSIGNMENT\01_OPENGL\02_PP\01_WINDOWS\99_ASSIMP\LIB\ASSIMP-MASTER\TEST\UNIT.DIR\DEBUG\VC143.PDB
^F:\WINDOWS 10\RTR\RTR_3\RTR2020_CLASS_ASSIGNMENT\01_OPENGL\02_PP\01_WINDOWS\99_ASSIMP\LIB\ASSIMP-MASTER\TEST\UNIT\COMMON\UTHASH.CPP
F:\WINDOWS 10\RTR\RTR_3\RTR2020_CLASS_ASSIGNMENT\01_OPENGL\02_PP\01_WINDOWS\99_ASSIMP\LIB\ASSIMP-MASTER\TEST\UNIT.DIR\DEBUG\VC143.PDB
^F:\WINDOWS 10\RTR\RTR_3\RTR2020_CLASS_ASSIGNMENT\01_OPENGL\02_PP\01_WINDOWS\99_ASSIMP\LIB\ASSIMP-MASTER\TEST\UNIT\MATHTEST.CPP
F:\WINDOWS 10\RTR\RTR_3\RTR2020_CLASS_ASSIGNMENT\01_OPENGL\02_PP\01_WINDOWS\99_ASSIMP\LIB\ASSIMP-MASTER\TEST\UNIT.DIR\DEBUG\VC143.PDB
^F:\WINDOWS 10\RTR\RTR_3\RTR2020_CLASS_ASSIGNMENT\01_OPENGL\02_PP\01_WINDOWS\99_ASSIMP\LIB\ASSIMP-MASTER\TEST\UNIT\UTBATCHLOADER.CPP
F:\WINDOWS 10\RTR\RTR_3\RTR2020_CLASS_ASSIGNMENT\01_OPENGL\02_PP\01_WINDOWS\99_ASSIMP\LIB\ASSIMP-MASTER\TEST\UNIT.DIR\DEBUG\VC143.PDB
^F:\WINDOWS 10\RTR\RTR_3\RTR2020_CLASS_ASSIGNMENT\01_OPENGL\02_PP\01_WINDOWS\99_ASSIMP\LIB\ASSIMP-MASTER\TEST\UNIT\UTDEFAULTIOSTREAM.CPP
F:\WINDOWS 10\RTR\RTR_3\RTR2020_CLASS_ASSIGNMENT\01_OPENGL\02_PP\01_WINDOWS\99_ASSIMP\LIB\ASSIMP-MASTER\TEST\UNIT.DIR\DEBUG\VC143.PDB
^F:\WINDOWS 10\RTR\RTR_3\RTR2020_CLASS_ASSIGNMENT\01_OPENGL\02_PP\01_WINDOWS\99_ASSIMP\LIB\ASSIMP-MASTER\TEST\UNIT\UTFASTATOF.CPP
F:\WINDOWS 10\RTR\RTR_3\RTR2020_CLASS_ASSIGNMENT\01_OPENGL\02_PP\01_WINDOWS\99_ASSIMP\LIB\ASSIMP-MASTER\TEST\UNIT.DIR\DEBUG\VC143.PDB
^F:\WINDOWS 10\RTR\RTR_3\RTR2020_CLASS_ASSIGNMENT\01_OPENGL\02_PP\01_WINDOWS\99_ASSIMP\LIB\ASSIMP-MASTER\TEST\UNIT\UTMETADATA.CPP
F:\WINDOWS 10\RTR\RTR_3\RTR2020_CLASS_ASSIGNMENT\01_OPENGL\02_PP\01_WINDOWS\99_ASSIMP\LIB\ASSIMP-MASTER\TEST\UNIT.DIR\DEBUG\VC143.PDB
^F:\WINDOWS 10\RTR\RTR_3\RTR2020_CLASS_ASSIGNMENT\01_OPENGL\02_PP\01_WINDOWS\99_ASSIMP\LIB\ASSIMP-MASTER\TEST\UNIT\SCENEDIFFER.CPP
F:\WINDOWS 10\RTR\RTR_3\RTR2020_CLASS_ASSIGNMENT\01_OPENGL\02_PP\01_WINDOWS\99_ASSIMP\LIB\ASSIMP-MASTER\TEST\UNIT.DIR\DEBUG\VC143.PDB
^F:\WINDOWS 10\RTR\RTR_3\RTR2020_CLASS_ASSIGNMENT\01_OPENGL\02_PP\01_WINDOWS\99_ASSIMP\LIB\ASSIMP-MASTER\TEST\UNIT\ABSTRACTIMPORTEXPORTBASE.CPP
F:\WINDOWS 10\RTR\RTR_3\RTR2020_CLASS_ASSIGNMENT\01_OPENGL\02_PP\01_WINDOWS\99_ASSIMP\LIB\ASSIMP-MASTER\TEST\UNIT.DIR\DEBUG\VC143.PDB
^F:\WINDOWS 10\RTR\RTR_3\RTR2020_CLASS_ASSIGNMENT\01_OPENGL\02_PP\01_WINDOWS\99_ASSIMP\LIB\ASSIMP-MASTER\TEST\UNIT\UTTYPES.CPP
F:\WINDOWS 10\RTR\RTR_3\RTR2020_CLASS_ASSIGNMENT\01_OPENGL\02_PP\01_WINDOWS\99_ASSIMP\LIB\ASSIMP-MASTER\TEST\UNIT.DIR\DEBUG\VC143.PDB
^F:\WINDOWS 10\RTR\RTR_3\RTR2020_CLASS_ASSIGNMENT\01_OPENGL\02_PP\01_WINDOWS\99_ASSIMP\LIB\ASSIMP-MASTER\TEST\UNIT\UTVERSION.CPP
F:\WINDOWS 10\RTR\RTR_3\RTR2020_CLASS_ASSIGNMENT\01_OPENGL\02_PP\01_WINDOWS\99_ASSIMP\LIB\ASSIMP-MASTER\TEST\UNIT.DIR\DEBUG\VC143.PDB
^F:\WINDOWS 10\RTR\RTR_3\RTR2020_CLASS_ASSIGNMENT\01_OPENGL\02_PP\01_WINDOWS\99_ASSIMP\LIB\ASSIMP-MASTER\TEST\UNIT\UTPROFILER.CPP
F:\WINDOWS 10\RTR\RTR_3\RTR2020_CLASS_ASSIGNMENT\01_OPENGL\02_PP\01_WINDOWS\99_ASSIMP\LIB\ASSIMP-MASTER\TEST\UNIT.DIR\DEBUG\VC143.PDB
^F:\WINDOWS 10\RTR\RTR_3\RTR2020_CLASS_ASSIGNMENT\01_OPENGL\02_PP\01_WINDOWS\99_ASSIMP\LIB\ASSIMP-MASTER\TEST\UNIT\UTSHAREDPPDATA.CPP
F:\WINDOWS 10\RTR\RTR_3\RTR2020_CLASS_ASSIGNMENT\01_OPENGL\02_PP\01_WINDOWS\99_ASSIMP\LIB\ASSIMP-MASTER\TEST\UNIT.DIR\DEBUG\VC143.PDB
^F:\WINDOWS 10\RTR\RTR_3\RTR2020_CLASS_ASSIGNMENT\01_OPENGL\02_PP\01_WINDOWS\99_ASSIMP\LIB\ASSIMP-MASTER\TEST\UNIT\UTSTRINGUTILS.CPP
F:\WINDOWS 10\RTR\RTR_3\RTR2020_CLASS_ASSIGNMENT\01_OPENGL\02_PP\01_WINDOWS\99_ASSIMP\LIB\ASSIMP-MASTER\TEST\UNIT.DIR\DEBUG\VC143.PDB
^F:\WINDOWS 10\RTR\RTR_3\RTR2020_CLASS_ASSIGNMENT\01_OPENGL\02_PP\01_WINDOWS\99_ASSIMP\LIB\ASSIMP-MASTER\TEST\UNIT\COMMON\UTMESH.CPP
F:\WINDOWS 10\RTR\RTR_3\RTR2020_CLASS_ASSIGNMENT\01_OPENGL\02_PP\01_WINDOWS\99_ASSIMP\LIB\ASSIMP-MASTER\TEST\UNIT.DIR\DEBUG\VC143.PDB
^F:\WINDOWS 10\RTR\RTR_3\RTR2020_CLASS_ASSIGNMENT\01_OPENGL\02_PP\01_WINDOWS\99_ASSIMP\LIB\ASSIMP-MASTER\TEST\UNIT\COMMON\UTSTANDARDSHAPES.CPP
F:\WINDOWS 10\RTR\RTR_3\RTR2020_CLASS_ASSIGNMENT\01_OPENGL\02_PP\01_WINDOWS\99_ASSIMP\LIB\ASSIMP-MASTER\TEST\UNIT.DIR\DEBUG\VC143.PDB
^F:\WINDOWS 10\RTR\RTR_3\RTR2020_CLASS_ASSIGNMENT\01_OPENGL\02_PP\01_WINDOWS\99_ASSIMP\LIB\ASSIMP-MASTER\TEST\UNIT\COMMON\UISCENE.CPP
F:\WINDOWS 10\RTR\RTR_3\RTR2020_CLASS_ASSIGNMENT\01_OPENGL\02_PP\01_WINDOWS\99_ASSIMP\LIB\ASSIMP-MASTER\TEST\UNIT.DIR\DEBUG\VC143.PDB
^F:\WINDOWS 10\RTR\RTR_3\RTR2020_CLASS_ASSIGNMENT\01_OPENGL\02_PP\01_WINDOWS\99_ASSIMP\LIB\ASSIMP-MASTER\TEST\UNIT\COMMON\UTLINESPLITTER.CPP
F:\WINDOWS 10\RTR\RTR_3\RTR2020_CLASS_ASSIGNMENT\01_OPENGL\02_PP\01_WINDOWS\99_ASSIMP\LIB\ASSIMP-MASTER\TEST\UNIT.DIR\DEBUG\VC143.PDB
^F:\WINDOWS 10\RTR\RTR_3\RTR2020_CLASS_ASSIGNMENT\01_OPENGL\02_PP\01_WINDOWS\99_ASSIMP\LIB\ASSIMP-MASTER\TEST\UNIT\COMMON\UTSPATIALSORT.CPP
F:\WINDOWS 10\RTR\RTR_3\RTR2020_CLASS_ASSIGNMENT\01_OPENGL\02_PP\01_WINDOWS\99_ASSIMP\LIB\ASSIMP-MASTER\TEST\UNIT.DIR\DEBUG\VC143.PDB
^F:\WINDOWS 10\RTR\RTR_3\RTR2020_CLASS_ASSIGNMENT\01_OPENGL\02_PP\01_WINDOWS\99_ASSIMP\LIB\ASSIMP-MASTER\TEST\UNIT\COMMON\UTASSERTHANDLER.CPP
F:\WINDOWS 10\RTR\RTR_3\RTR2020_CLASS_ASSIGNMENT\01_OPENGL\02_PP\01_WINDOWS\99_ASSIMP\LIB\ASSIMP-MASTER\TEST\UNIT.DIR\DEBUG\VC143.PDB
^F:\WINDOWS 10\RTR\RTR_3\RTR2020_CLASS_ASSIGNMENT\01_OPENGL\02_PP\01_WINDOWS\99_ASSIMP\LIB\ASSIMP-MASTER\TEST\UNIT\COMMON\UTXMLPARSER.CPP
F:\WINDOWS 10\RTR\RTR_3\RTR2020_CLASS_ASSIGNMENT\01_OPENGL\02_PP\01_WINDOWS\99_ASSIMP\LIB\ASSIMP-MASTER\TEST\UNIT.DIR\DEBUG\VC143.PDB
^F:\WINDOWS 10\RTR\RTR_3\RTR2020_CLASS_ASSIGNMENT\01_OPENGL\02_PP\01_WINDOWS\99_ASSIMP\LIB\ASSIMP-MASTER\TEST\UNIT\COMMON\UTBASE64.CPP
F:\WINDOWS 10\RTR\RTR_3\RTR2020_CLASS_ASSIGNMENT\01_OPENGL\02_PP\01_WINDOWS\99_ASSIMP\LIB\ASSIMP-MASTER\TEST\UNIT.DIR\DEBUG\VC143.PDB
^F:\WINDOWS 10\RTR\RTR_3\RTR2020_CLASS_ASSIGNMENT\01_OPENGL\02_PP\01_WINDOWS\99_ASSIMP\LIB\ASSIMP-MASTER\TEST\UNIT\IMPORTEXPORT\ASSXML\UTASSXMLIMPORTEXPORT.CPP
F:\WINDOWS 10\RTR\RTR_3\RTR2020_CLASS_ASSIGNMENT\01_OPENGL\02_PP\01_WINDOWS\99_ASSIMP\LIB\ASSIMP-MASTER\TEST\UNIT.DIR\DEBUG\VC143.PDB
^F:\WINDOWS 10\RTR\RTR_3\RTR2020_CLASS_ASSIGNMENT\01_OPENGL\02_PP\01_WINDOWS\99_ASSIMP\LIB\ASSIMP-MASTER\TEST\UNIT\UTLWSIMPORTEXPORT.CPP
F:\WINDOWS 10\RTR\RTR_3\RTR2020_CLASS_ASSIGNMENT\01_OPENGL\02_PP\01_WINDOWS\99_ASSIMP\LIB\ASSIMP-MASTER\TEST\UNIT.DIR\DEBUG\VC143.PDB
^F:\WINDOWS 10\RTR\RTR_3\RTR2020_CLASS_ASSIGNMENT\01_OPENGL\02_PP\01_WINDOWS\99_ASSIMP\LIB\ASSIMP-MASTER\TEST\UNIT\UTLWOIMPORTEXPORT.CPP
F:\WINDOWS 10\RTR\RTR_3\RTR2020_CLASS_ASSIGNMENT\01_OPENGL\02_PP\01_WINDOWS\99_ASSIMP\LIB\ASSIMP-MASTER\TEST\UNIT.DIR\DEBUG\VC143.PDB
^F:\WINDOWS 10\RTR\RTR_3\RTR2020_CLASS_ASSIGNMENT\01_OPENGL\02_PP\01_WINDOWS\99_ASSIMP\LIB\ASSIMP-MASTER\TEST\UNIT\UTSMDIMPORTEXPORT.CPP
F:\WINDOWS 10\RTR\RTR_3\RTR2020_CLASS_ASSIGNMENT\01_OPENGL\02_PP\01_WINDOWS\99_ASSIMP\LIB\ASSIMP-MASTER\TEST\UNIT.DIR\DEBUG\VC143.PDB
^F:\WINDOWS 10\RTR\RTR_3\RTR2020_CLASS_ASSIGNMENT\01_OPENGL\02_PP\01_WINDOWS\99_ASSIMP\LIB\ASSIMP-MASTER\TEST\UNIT\UTGLTFIMPORTEXPORT.CPP
F:\WINDOWS 10\RTR\RTR_3\RTR2020_CLASS_ASSIGNMENT\01_OPENGL\02_PP\01_WINDOWS\99_ASSIMP\LIB\ASSIMP-MASTER\TEST\UNIT.DIR\DEBUG\VC143.PDB
^F:\WINDOWS 10\RTR\RTR_3\RTR2020_CLASS_ASSIGNMENT\01_OPENGL\02_PP\01_WINDOWS\99_ASSIMP\LIB\ASSIMP-MASTER\TEST\UNIT\UTGLTF2IMPORTEXPORT.CPP
F:\WINDOWS 10\RTR\RTR_3\RTR2020_CLASS_ASSIGNMENT\01_OPENGL\02_PP\01_WINDOWS\99_ASSIMP\LIB\ASSIMP-MASTER\TEST\UNIT.DIR\DEBUG\VC143.PDB
^F:\WINDOWS 10\RTR\RTR_3\RTR2020_CLASS_ASSIGNMENT\01_OPENGL\02_PP\01_WINDOWS\99_ASSIMP\LIB\ASSIMP-MASTER\TEST\UNIT\UTHMPIMPORTEXPORT.CPP
F:\WINDOWS 10\RTR\RTR_3\RTR2020_CLASS_ASSIGNMENT\01_OPENGL\02_PP\01_WINDOWS\99_ASSIMP\LIB\ASSIMP-MASTER\TEST\UNIT.DIR\DEBUG\VC143.PDB
^F:\WINDOWS 10\RTR\RTR_3\RTR2020_CLASS_ASSIGNMENT\01_OPENGL\02_PP\01_WINDOWS\99_ASSIMP\LIB\ASSIMP-MASTER\TEST\UNIT\UTIFCIMPORTEXPORT.CPP
F:\WINDOWS 10\RTR\RTR_3\RTR2020_CLASS_ASSIGNMENT\01_OPENGL\02_PP\01_WINDOWS\99_ASSIMP\LIB\ASSIMP-MASTER\TEST\UNIT.DIR\DEBUG\VC143.PDB
^F:\WINDOWS 10\RTR\RTR_3\RTR2020_CLASS_ASSIGNMENT\01_OPENGL\02_PP\01_WINDOWS\99_ASSIMP\LIB\ASSIMP-MASTER\TEST\UNIT\UTFBXIMPORTEREXPORTER.CPP
F:\WINDOWS 10\RTR\RTR_3\RTR2020_CLASS_ASSIGNMENT\01_OPENGL\02_PP\01_WINDOWS\99_ASSIMP\LIB\ASSIMP-MASTER\TEST\UNIT.DIR\DEBUG\VC143.PDB
^F:\WINDOWS 10\RTR\RTR_3\RTR2020_CLASS_ASSIGNMENT\01_OPENGL\02_PP\01_WINDOWS\99_ASSIMP\LIB\ASSIMP-MASTER\TEST\UNIT\UTIMPORTER.CPP
F:\WINDOWS 10\RTR\RTR_3\RTR2020_CLASS_ASSIGNMENT\01_OPENGL\02_PP\01_WINDOWS\99_ASSIMP\LIB\ASSIMP-MASTER\TEST\UNIT.DIR\DEBUG\VC143.PDB
^F:\WINDOWS 10\RTR\RTR_3\RTR2020_CLASS_ASSIGNMENT\01_OPENGL\02_PP\01_WINDOWS\99_ASSIMP\LIB\ASSIMP-MASTER\TEST\UNIT\IMPORTEXPORT\UTEXPORTER.CPP
F:\WINDOWS 10\RTR\RTR_3\RTR2020_CLASS_ASSIGNMENT\01_OPENGL\02_PP\01_WINDOWS\99_ASSIMP\LIB\ASSIMP-MASTER\TEST\UNIT.DIR\DEBUG\VC143.PDB
^F:\WINDOWS 10\RTR\RTR_3\RTR2020_CLASS_ASSIGNMENT\01_OPENGL\02_PP\01_WINDOWS\99_ASSIMP\LIB\ASSIMP-MASTER\TEST\UNIT\UT3DIMPORTEXPORT.CPP
F:\WINDOWS 10\RTR\RTR_3\RTR2020_CLASS_ASSIGNMENT\01_OPENGL\02_PP\01_WINDOWS\99_ASSIMP\LIB\ASSIMP-MASTER\TEST\UNIT.DIR\DEBUG\VC143.PDB
^F:\WINDOWS 10\RTR\RTR_3\RTR2020_CLASS_ASSIGNMENT\01_OPENGL\02_PP\01_WINDOWS\99_ASSIMP\LIB\ASSIMP-MASTER\TEST\UNIT\UT3DSIMPORTEXPORT.CPP
F:\WINDOWS 10\RTR\RTR_3\RTR2020_CLASS_ASSIGNMENT\01_OPENGL\02_PP\01_WINDOWS\99_ASSIMP\LIB\ASSIMP-MASTER\TEST\UNIT.DIR\DEBUG\VC143.PDB
^F:\WINDOWS 10\RTR\RTR_3\RTR2020_CLASS_ASSIGNMENT\01_OPENGL\02_PP\01_WINDOWS\99_ASSIMP\LIB\ASSIMP-MASTER\TEST\UNIT\UTACIMPORTEXPORT.CPP
F:\WINDOWS 10\RTR\RTR_3\RTR2020_CLASS_ASSIGNMENT\01_OPENGL\02_PP\01_WINDOWS\99_ASSIMP\LIB\ASSIMP-MASTER\TEST\UNIT.DIR\DEBUG\VC143.PDB
^F:\WINDOWS 10\RTR\RTR_3\RTR2020_CLASS_ASSIGNMENT\01_OPENGL\02_PP\01_WINDOWS\99_ASSIMP\LIB\ASSIMP-MASTER\TEST\UNIT\UTAMFIMPORTEXPORT.CPP
F:\WINDOWS 10\RTR\RTR_3\RTR2020_CLASS_ASSIGNMENT\01_OPENGL\02_PP\01_WINDOWS\99_ASSIMP\LIB\ASSIMP-MASTER\TEST\UNIT.DIR\DEBUG\VC143.PDB
^F:\WINDOWS 10\RTR\RTR_3\RTR2020_CLASS_ASSIGNMENT\01_OPENGL\02_PP\01_WINDOWS\99_ASSIMP\LIB\ASSIMP-MASTER\TEST\UNIT\UTASEIMPORTEXPORT.CPP
F:\WINDOWS 10\RTR\RTR_3\RTR2020_CLASS_ASSIGNMENT\01_OPENGL\02_PP\01_WINDOWS\99_ASSIMP\LIB\ASSIMP-MASTER\TEST\UNIT.DIR\DEBUG\VC143.PDB
^F:\WINDOWS 10\RTR\RTR_3\RTR2020_CLASS_ASSIGNMENT\01_OPENGL\02_PP\01_WINDOWS\99_ASSIMP\LIB\ASSIMP-MASTER\TEST\UNIT\UTD3MFIMPORTEXPORT.CPP
F:\WINDOWS 10\RTR\RTR_3\RTR2020_CLASS_ASSIGNMENT\01_OPENGL\02_PP\01_WINDOWS\99_ASSIMP\LIB\ASSIMP-MASTER\TEST\UNIT.DIR\DEBUG\VC143.PDB
^F:\WINDOWS 10\RTR\RTR_3\RTR2020_CLASS_ASSIGNMENT\01_OPENGL\02_PP\01_WINDOWS\99_ASSIMP\LIB\ASSIMP-MASTER\TEST\UNIT\UTQ3DIMPORTEXPORT.CPP
F:\WINDOWS 10\RTR\RTR_3\RTR2020_CLASS_ASSIGNMENT\01_OPENGL\02_PP\01_WINDOWS\99_ASSIMP\LIB\ASSIMP-MASTER\TEST\UNIT.DIR\DEBUG\VC143.PDB
^F:\WINDOWS 10\RTR\RTR_3\RTR2020_CLASS_ASSIGNMENT\01_OPENGL\02_PP\01_WINDOWS\99_ASSIMP\LIB\ASSIMP-MASTER\TEST\UNIT\UTSTLIMPORTEXPORT.CPP
F:\WINDOWS 10\RTR\RTR_3\RTR2020_CLASS_ASSIGNMENT\01_OPENGL\02_PP\01_WINDOWS\99_ASSIMP\LIB\ASSIMP-MASTER\TEST\UNIT.DIR\DEBUG\VC143.PDB
^F:\WINDOWS 10\RTR\RTR_3\RTR2020_CLASS_ASSIGNMENT\01_OPENGL\02_PP\01_WINDOWS\99_ASSIMP\LIB\ASSIMP-MASTER\TEST\UNIT\UTXIMPORTEREXPORTER.CPP
F:\WINDOWS 10\RTR\RTR_3\RTR2020_CLASS_ASSIGNMENT\01_OPENGL\02_PP\01_WINDOWS\99_ASSIMP\LIB\ASSIMP-MASTER\TEST\UNIT.DIR\DEBUG\VC143.PDB
^F:\WINDOWS 10\RTR\RTR_3\RTR2020_CLASS_ASSIGNMENT\01_OPENGL\02_PP\01_WINDOWS\99_ASSIMP\LIB\ASSIMP-MASTER\TEST\UNIT\UTX3DIMPORTEXPORT.CPP
F:\WINDOWS 10\RTR\RTR_3\RTR2020_CLASS_ASSIGNMENT\01_OPENGL\02_PP\01_WINDOWS\99_ASSIMP\LIB\ASSIMP-MASTER\TEST\UNIT.DIR\DEBUG\VC143.PDB
^F:\WINDOWS 10\RTR\RTR_3\RTR2020_CLASS_ASSIGNMENT\01_OPENGL\02_PP\01_WINDOWS\99_ASSIMP\LIB\ASSIMP-MASTER\TEST\UNIT\UTDXFIMPORTEREXPORTER.CPP
F:\WINDOWS 10\RTR\RTR_3\RTR2020_CLASS_ASSIGNMENT\01_OPENGL\02_PP\01_WINDOWS\99_ASSIMP\LIB\ASSIMP-MASTER\TEST\UNIT.DIR\DEBUG\VC143.PDB
^F:\WINDOWS 10\RTR\RTR_3\RTR2020_CLASS_ASSIGNMENT\01_OPENGL\02_PP\01_WINDOWS\99_ASSIMP\LIB\ASSIMP-MASTER\TEST\UNIT\UTPMXIMPORTER.CPP
F:\WINDOWS 10\RTR\RTR_3\RTR2020_CLASS_ASSIGNMENT\01_OPENGL\02_PP\01_WINDOWS\99_ASSIMP\LIB\ASSIMP-MASTER\TEST\UNIT.DIR\DEBUG\VC143.PDB
^F:\WINDOWS 10\RTR\RTR_3\RTR2020_CLASS_ASSIGNMENT\01_OPENGL\02_PP\01_WINDOWS\99_ASSIMP\LIB\ASSIMP-MASTER\TEST\UNIT\UTPLYIMPORTEXPORT.CPP
F:\WINDOWS 10\RTR\RTR_3\RTR2020_CLASS_ASSIGNMENT\01_OPENGL\02_PP\01_WINDOWS\99_ASSIMP\LIB\ASSIMP-MASTER\TEST\UNIT.DIR\DEBUG\VC143.PDB
^F:\WINDOWS 10\RTR\RTR_3\RTR2020_CLASS_ASSIGNMENT\01_OPENGL\02_PP\01_WINDOWS\99_ASSIMP\LIB\ASSIMP-MASTER\TEST\UNIT\UTOBJIMPORTEXPORT.CPP
F:\WINDOWS 10\RTR\RTR_3\RTR2020_CLASS_ASSIGNMENT\01_OPENGL\02_PP\01_WINDOWS\99_ASSIMP\LIB\ASSIMP-MASTER\TEST\UNIT.DIR\DEBUG\VC143.PDB
^F:\WINDOWS 10\RTR\RTR_3\RTR2020_CLASS_ASSIGNMENT\01_OPENGL\02_PP\01_WINDOWS\99_ASSIMP\LIB\ASSIMP-MASTER\TEST\UNIT\UTOBJTOOLS.CPP
F:\WINDOWS 10\RTR\RTR_3\RTR2020_CLASS_ASSIGNMENT\01_OPENGL\02_PP\01_WINDOWS\99_ASSIMP\LIB\ASSIMP-MASTER\TEST\UNIT.DIR\DEBUG\VC143.PDB
^F:\WINDOWS 10\RTR\RTR_3\RTR2020_CLASS_ASSIGNMENT\01_OPENGL\02_PP\01_WINDOWS\99_ASSIMP\LIB\ASSIMP-MASTER\TEST\UNIT\UTOPENGEXIMPORTEXPORT.CPP
F:\WINDOWS 10\RTR\RTR_3\RTR2020_CLASS_ASSIGNMENT\01_OPENGL\02_PP\01_WINDOWS\99_ASSIMP\LIB\ASSIMP-MASTER\TEST\UNIT.DIR\DEBUG\VC143.PDB
^F:\WINDOWS 10\RTR\RTR_3\RTR2020_CLASS_ASSIGNMENT\01_OPENGL\02_PP\01_WINDOWS\99_ASSIMP\LIB\ASSIMP-MASTER\TEST\UNIT\UTSIBIMPORTER.CPP
F:\WINDOWS 10\RTR\RTR_3\RTR2020_CLASS_ASSIGNMENT\01_OPENGL\02_PP\01_WINDOWS\99_ASSIMP\LIB\ASSIMP-MASTER\TEST\UNIT.DIR\DEBUG\VC143.PDB
^F:\WINDOWS 10\RTR\RTR_3\RTR2020_CLASS_ASSIGNMENT\01_OPENGL\02_PP\01_WINDOWS\99_ASSIMP\LIB\ASSIMP-MASTER\TEST\UNIT\UTBLENDERINTERMEDIATE.CPP
F:\WINDOWS 10\RTR\RTR_3\RTR2020_CLASS_ASSIGNMENT\01_OPENGL\02_PP\01_WINDOWS\99_ASSIMP\LIB\ASSIMP-MASTER\TEST\UNIT.DIR\DEBUG\VC143.PDB
^F:\WINDOWS 10\RTR\RTR_3\RTR2020_CLASS_ASSIGNMENT\01_OPENGL\02_PP\01_WINDOWS\99_ASSIMP\LIB\ASSIMP-MASTER\TEST\UNIT\UTBLENDIMPORTAREALIGHT.CPP
F:\WINDOWS 10\RTR\RTR_3\RTR2020_CLASS_ASSIGNMENT\01_OPENGL\02_PP\01_WINDOWS\99_ASSIMP\LIB\ASSIMP-MASTER\TEST\UNIT.DIR\DEBUG\VC143.PDB
^F:\WINDOWS 10\RTR\RTR_3\RTR2020_CLASS_ASSIGNMENT\01_OPENGL\02_PP\01_WINDOWS\99_ASSIMP\LIB\ASSIMP-MASTER\TEST\UNIT\UTBLENDERIMPORTEXPORT.CPP
F:\WINDOWS 10\RTR\RTR_3\RTR2020_CLASS_ASSIGNMENT\01_OPENGL\02_PP\01_WINDOWS\99_ASSIMP\LIB\ASSIMP-MASTER\TEST\UNIT.DIR\DEBUG\VC143.PDB
^F:\WINDOWS 10\RTR\RTR_3\RTR2020_CLASS_ASSIGNMENT\01_OPENGL\02_PP\01_WINDOWS\99_ASSIMP\LIB\ASSIMP-MASTER\TEST\UNIT\UTBLENDIMPORTMATERIALS.CPP
F:\WINDOWS 10\RTR\RTR_3\RTR2020_CLASS_ASSIGNMENT\01_OPENGL\02_PP\01_WINDOWS\99_ASSIMP\LIB\ASSIMP-MASTER\TEST\UNIT.DIR\DEBUG\VC143.PDB
^F:\WINDOWS 10\RTR\RTR_3\RTR2020_CLASS_ASSIGNMENT\01_OPENGL\02_PP\01_WINDOWS\99_ASSIMP\LIB\ASSIMP-MASTER\TEST\UNIT\UTBLENDERWORK.CPP
F:\WINDOWS 10\RTR\RTR_3\RTR2020_CLASS_ASSIGNMENT\01_OPENGL\02_PP\01_WINDOWS\99_ASSIMP\LIB\ASSIMP-MASTER\TEST\UNIT.DIR\DEBUG\VC143.PDB
^F:\WINDOWS 10\RTR\RTR_3\RTR2020_CLASS_ASSIGNMENT\01_OPENGL\02_PP\01_WINDOWS\99_ASSIMP\LIB\ASSIMP-MASTER\TEST\UNIT\UTBVHIMPORTEXPORT.CPP
F:\WINDOWS 10\RTR\RTR_3\RTR2020_CLASS_ASSIGNMENT\01_OPENGL\02_PP\01_WINDOWS\99_ASSIMP\LIB\ASSIMP-MASTER\TEST\UNIT.DIR\DEBUG\VC143.PDB
^F:\WINDOWS 10\RTR\RTR_3\RTR2020_CLASS_ASSIGNMENT\01_OPENGL\02_PP\01_WINDOWS\99_ASSIMP\LIB\ASSIMP-MASTER\TEST\UNIT\UTCOLLADAEXPORT.CPP
F:\WINDOWS 10\RTR\RTR_3\RTR2020_CLASS_ASSIGNMENT\01_OPENGL\02_PP\01_WINDOWS\99_ASSIMP\LIB\ASSIMP-MASTER\TEST\UNIT.DIR\DEBUG\VC143.PDB
^F:\WINDOWS 10\RTR\RTR_3\RTR2020_CLASS_ASSIGNMENT\01_OPENGL\02_PP\01_WINDOWS\99_ASSIMP\LIB\ASSIMP-MASTER\TEST\UNIT\UTCOLLADAIMPORTEXPORT.CPP
F:\WINDOWS 10\RTR\RTR_3\RTR2020_CLASS_ASSIGNMENT\01_OPENGL\02_PP\01_WINDOWS\99_ASSIMP\LIB\ASSIMP-MASTER\TEST\UNIT.DIR\DEBUG\VC143.PDB
^F:\WINDOWS 10\RTR\RTR_3\RTR2020_CLASS_ASSIGNMENT\01_OPENGL\02_PP\01_WINDOWS\99_ASSIMP\LIB\ASSIMP-MASTER\TEST\UNIT\UTCSMIMPORTEXPORT.CPP
F:\WINDOWS 10\RTR\RTR_3\RTR2020_CLASS_ASSIGNMENT\01_OPENGL\02_PP\01_WINDOWS\99_ASSIMP\LIB\ASSIMP-MASTER\TEST\UNIT.DIR\DEBUG\VC143.PDB
^F:\WINDOWS 10\RTR\RTR_3\RTR2020_CLASS_ASSIGNMENT\01_OPENGL\02_PP\01_WINDOWS\99_ASSIMP\LIB\ASSIMP-MASTER\TEST\UNIT\UTB3DIMPORTEXPORT.CPP
F:\WINDOWS 10\RTR\RTR_3\RTR2020_CLASS_ASSIGNMENT\01_OPENGL\02_PP\01_WINDOWS\99_ASSIMP\LIB\ASSIMP-MASTER\TEST\UNIT.DIR\DEBUG\VC143.PDB
^F:\WINDOWS 10\RTR\RTR_3\RTR2020_CLASS_ASSIGNMENT\01_OPENGL\02_PP\01_WINDOWS\99_ASSIMP\LIB\ASSIMP-MASTER\TEST\UNIT\UTMDCIMPORTEXPORT.CPP
F:\WINDOWS 10\RTR\RTR_3\RTR2020_CLASS_ASSIGNMENT\01_OPENGL\02_PP\01_WINDOWS\99_ASSIMP\LIB\ASSIMP-MASTER\TEST\UNIT.DIR\DEBUG\VC143.PDB
^F:\WINDOWS 10\RTR\RTR_3\RTR2020_CLASS_ASSIGNMENT\01_OPENGL\02_PP\01_WINDOWS\99_ASSIMP\LIB\ASSIMP-MASTER\TEST\UNIT\UTASSBINIMPORTEXPORT.CPP
F:\WINDOWS 10\RTR\RTR_3\RTR2020_CLASS_ASSIGNMENT\01_OPENGL\02_PP\01_WINDOWS\99_ASSIMP\LIB\ASSIMP-MASTER\TEST\UNIT.DIR\DEBUG\VC143.PDB
^F:\WINDOWS 10\RTR\RTR_3\RTR2020_CLASS_ASSIGNMENT\01_OPENGL\02_PP\01_WINDOWS\99_ASSIMP\LIB\ASSIMP-MASTER\TEST\UNIT\IMPORTEXPORT\UTASSJSONIMPORTEXPORT.CPP
F:\WINDOWS 10\RTR\RTR_3\RTR2020_CLASS_ASSIGNMENT\01_OPENGL\02_PP\01_WINDOWS\99_ASSIMP\LIB\ASSIMP-MASTER\TEST\UNIT.DIR\DEBUG\VC143.PDB
^F:\WINDOWS 10\RTR\RTR_3\RTR2020_CLASS_ASSIGNMENT\01_OPENGL\02_PP\01_WINDOWS\99_ASSIMP\LIB\ASSIMP-MASTER\TEST\UNIT\IMPORTEXPORT\UTCOBIMPORTEXPORT.CPP
F:\WINDOWS 10\RTR\RTR_3\RTR2020_CLASS_ASSIGNMENT\01_OPENGL\02_PP\01_WINDOWS\99_ASSIMP\LIB\ASSIMP-MASTER\TEST\UNIT.DIR\DEBUG\VC143.PDB
^F:\WINDOWS 10\RTR\RTR_3\RTR2020_CLASS_ASSIGNMENT\01_OPENGL\02_PP\01_WINDOWS\99_ASSIMP\LIB\ASSIMP-MASTER\TEST\UNIT\IMPORTEXPORT\UTOGREIMPORTEXPORT.CPP
F:\WINDOWS 10\RTR\RTR_3\RTR2020_CLASS_ASSIGNMENT\01_OPENGL\02_PP\01_WINDOWS\99_ASSIMP\LIB\ASSIMP-MASTER\TEST\UNIT.DIR\DEBUG\VC143.PDB
^F:\WINDOWS 10\RTR\RTR_3\RTR2020_CLASS_ASSIGNMENT\01_OPENGL\02_PP\01_WINDOWS\99_ASSIMP\LIB\ASSIMP-MASTER\TEST\UNIT\IMPORTEXPORT\UTQ3BSPFILEIMPORTEXPORT.CPP
F:\WINDOWS 10\RTR\RTR_3\RTR2020_CLASS_ASSIGNMENT\01_OPENGL\02_PP\01_WINDOWS\99_ASSIMP\LIB\ASSIMP-MASTER\TEST\UNIT.DIR\DEBUG\VC143.PDB
^F:\WINDOWS 10\RTR\RTR_3\RTR2020_CLASS_ASSIGNMENT\01_OPENGL\02_PP\01_WINDOWS\99_ASSIMP\LIB\ASSIMP-MASTER\TEST\UNIT\IMPORTEXPORT\UTOFFIMPORTEXPORT.CPP
F:\WINDOWS 10\RTR\RTR_3\RTR2020_CLASS_ASSIGNMENT\01_OPENGL\02_PP\01_WINDOWS\99_ASSIMP\LIB\ASSIMP-MASTER\TEST\UNIT.DIR\DEBUG\VC143.PDB
^F:\WINDOWS 10\RTR\RTR_3\RTR2020_CLASS_ASSIGNMENT\01_OPENGL\02_PP\01_WINDOWS\99_ASSIMP\LIB\ASSIMP-MASTER\TEST\UNIT\IMPORTEXPORT\UTNFFIMPORTEXPORT.CPP
F:\WINDOWS 10\RTR\RTR_3\RTR2020_CLASS_ASSIGNMENT\01_OPENGL\02_PP\01_WINDOWS\99_ASSIMP\LIB\ASSIMP-MASTER\TEST\UNIT.DIR\DEBUG\VC143.PDB
^F:\WINDOWS 10\RTR\RTR_3\RTR2020_CLASS_ASSIGNMENT\01_OPENGL\02_PP\01_WINDOWS\99_ASSIMP\LIB\ASSIMP-MASTER\TEST\UNIT\IMPORTEXPORT\UTXGLIMPORTEXPORT.CPP
F:\WINDOWS 10\RTR\RTR_3\RTR2020_CLASS_ASSIGNMENT\01_OPENGL\02_PP\01_WINDOWS\99_ASSIMP\LIB\ASSIMP-MASTER\TEST\UNIT.DIR\DEBUG\VC143.PDB
^F:\WINDOWS 10\RTR\RTR_3\RTR2020_CLASS_ASSIGNMENT\01_OPENGL\02_PP\01_WINDOWS\99_ASSIMP\LIB\ASSIMP-MASTER\TEST\UNIT\IMPORTEXPORT\UTMD2IMPORTER.CPP
F:\WINDOWS 10\RTR\RTR_3\RTR2020_CLASS_ASSIGNMENT\01_OPENGL\02_PP\01_WINDOWS\99_ASSIMP\LIB\ASSIMP-MASTER\TEST\UNIT.DIR\DEBUG\VC143.PDB
^F:\WINDOWS 10\RTR\RTR_3\RTR2020_CLASS_ASSIGNMENT\01_OPENGL\02_PP\01_WINDOWS\99_ASSIMP\LIB\ASSIMP-MASTER\TEST\UNIT\IMPORTEXPORT\UTMD5IMPORTER.CPP
F:\WINDOWS 10\RTR\RTR_3\RTR2020_CLASS_ASSIGNMENT\01_OPENGL\02_PP\01_WINDOWS\99_ASSIMP\LIB\ASSIMP-MASTER\TEST\UNIT.DIR\DEBUG\VC143.PDB
^F:\WINDOWS 10\RTR\RTR_3\RTR2020_CLASS_ASSIGNMENT\01_OPENGL\02_PP\01_WINDOWS\99_ASSIMP\LIB\ASSIMP-MASTER\TEST\UNIT\IMPORTEXPORT\UTMDLIMPORTER.CPP
F:\WINDOWS 10\RTR\RTR_3\RTR2020_CLASS_ASSIGNMENT\01_OPENGL\02_PP\01_WINDOWS\99_ASSIMP\LIB\ASSIMP-MASTER\TEST\UNIT.DIR\DEBUG\VC143.PDB
^F:\WINDOWS 10\RTR\RTR_3\RTR2020_CLASS_ASSIGNMENT\01_OPENGL\02_PP\01_WINDOWS\99_ASSIMP\LIB\ASSIMP-MASTER\TEST\UNIT\IMPORTEXPORT\MDL\UTMDLIMPORTER_HL1_IMPORTSETTINGS.CPP
F:\WINDOWS 10\RTR\RTR_3\RTR2020_CLASS_ASSIGNMENT\01_OPENGL\02_PP\01_WINDOWS\99_ASSIMP\LIB\ASSIMP-MASTER\TEST\UNIT.DIR\DEBUG\VC143.PDB
^F:\WINDOWS 10\RTR\RTR_3\RTR2020_CLASS_ASSIGNMENT\01_OPENGL\02_PP\01_WINDOWS\99_ASSIMP\LIB\ASSIMP-MASTER\TEST\UNIT\IMPORTEXPORT\MDL\UTMDLIMPORTER_HL1_MATERIALS.CPP
F:\WINDOWS 10\RTR\RTR_3\RTR2020_CLASS_ASSIGNMENT\01_OPENGL\02_PP\01_WINDOWS\99_ASSIMP\LIB\ASSIMP-MASTER\TEST\UNIT.DIR\DEBUG\VC143.PDB
^F:\WINDOWS 10\RTR\RTR_3\RTR2020_CLASS_ASSIGNMENT\01_OPENGL\02_PP\01_WINDOWS\99_ASSIMP\LIB\ASSIMP-MASTER\TEST\UNIT\IMPORTEXPORT\MDL\UTMDLIMPORTER_HL1_NODES.CPP
F:\WINDOWS 10\RTR\RTR_3\RTR2020_CLASS_ASSIGNMENT\01_OPENGL\02_PP\01_WINDOWS\99_ASSIMP\LIB\ASSIMP-MASTER\TEST\UNIT.DIR\DEBUG\VC143.PDB
^F:\WINDOWS 10\RTR\RTR_3\RTR2020_CLASS_ASSIGNMENT\01_OPENGL\02_PP\01_WINDOWS\99_ASSIMP\LIB\ASSIMP-MASTER\TEST\UNIT\IMPORTEXPORT\RAW\UTRAWIMPORTEXPORT.CPP
F:\WINDOWS 10\RTR\RTR_3\RTR2020_CLASS_ASSIGNMENT\01_OPENGL\02_PP\01_WINDOWS\99_ASSIMP\LIB\ASSIMP-MASTER\TEST\UNIT.DIR\DEBUG\VC143.PDB
^F:\WINDOWS 10\RTR\RTR_3\RTR2020_CLASS_ASSIGNMENT\01_OPENGL\02_PP\01_WINDOWS\99_ASSIMP\LIB\ASSIMP-MASTER\TEST\UNIT\IMPORTEXPORT\TERRAGEN\UTTERRAGENIMPORTEXPORT.CPP
F:\WINDOWS 10\RTR\RTR_3\RTR2020_CLASS_ASSIGNMENT\01_OPENGL\02_PP\01_WINDOWS\99_ASSIMP\LIB\ASSIMP-MASTER\TEST\UNIT.DIR\DEBUG\VC143.PDB
^F:\WINDOWS 10\RTR\RTR_3\RTR2020_CLASS_ASSIGNMENT\01_OPENGL\02_PP\01_WINDOWS\99_ASSIMP\LIB\ASSIMP-MASTER\TEST\UNIT\UTMATERIALSYSTEM.CPP
F:\WINDOWS 10\RTR\RTR_3\RTR2020_CLASS_ASSIGNMENT\01_OPENGL\02_PP\01_WINDOWS\99_ASSIMP\LIB\ASSIMP-MASTER\TEST\UNIT.DIR\DEBUG\VC143.PDB
^F:\WINDOWS 10\RTR\RTR_3\RTR2020_CLASS_ASSIGNMENT\01_OPENGL\02_PP\01_WINDOWS\99_ASSIMP\LIB\ASSIMP-MASTER\TEST\UNIT\UTMATRIX3X3.CPP
F:\WINDOWS 10\RTR\RTR_3\RTR2020_CLASS_ASSIGNMENT\01_OPENGL\02_PP\01_WINDOWS\99_ASSIMP\LIB\ASSIMP-MASTER\TEST\UNIT.DIR\DEBUG\VC143.PDB
^F:\WINDOWS 10\RTR\RTR_3\RTR2020_CLASS_ASSIGNMENT\01_OPENGL\02_PP\01_WINDOWS\99_ASSIMP\LIB\ASSIMP-MASTER\TEST\UNIT\UTMATRIX4X4.CPP
F:\WINDOWS 10\RTR\RTR_3\RTR2020_CLASS_ASSIGNMENT\01_OPENGL\02_PP\01_WINDOWS\99_ASSIMP\LIB\ASSIMP-MASTER\TEST\UNIT.DIR\DEBUG\VC143.PDB
^F:\WINDOWS 10\RTR\RTR_3\RTR2020_CLASS_ASSIGNMENT\01_OPENGL\02_PP\01_WINDOWS\99_ASSIMP\LIB\ASSIMP-MASTER\TEST\UNIT\UTVECTOR3.CPP
F:\WINDOWS 10\RTR\RTR_3\RTR2020_CLASS_ASSIGNMENT\01_OPENGL\02_PP\01_WINDOWS\99_ASSIMP\LIB\ASSIMP-MASTER\TEST\UNIT.DIR\DEBUG\VC143.PDB
^F:\WINDOWS 10\RTR\RTR_3\RTR2020_CLASS_ASSIGNMENT\01_OPENGL\02_PP\01_WINDOWS\99_ASSIMP\LIB\ASSIMP-MASTER\TEST\UNIT\UTIMPROVECACHELOCALITY.CPP
F:\WINDOWS 10\RTR\RTR_3\RTR2020_CLASS_ASSIGNMENT\01_OPENGL\02_PP\01_WINDOWS\99_ASSIMP\LIB\ASSIMP-MASTER\TEST\UNIT.DIR\DEBUG\VC143.PDB
^F:\WINDOWS 10\RTR\RTR_3\RTR2020_CLASS_ASSIGNMENT\01_OPENGL\02_PP\01_WINDOWS\99_ASSIMP\LIB\ASSIMP-MASTER\TEST\UNIT\UTFIXINFACINGNORMALS.CPP
F:\WINDOWS 10\RTR\RTR_3\RTR2020_CLASS_ASSIGNMENT\01_OPENGL\02_PP\01_WINDOWS\99_ASSIMP\LIB\ASSIMP-MASTER\TEST\UNIT.DIR\DEBUG\VC143.PDB
^F:\WINDOWS 10\RTR\RTR_3\RTR2020_CLASS_ASSIGNMENT\01_OPENGL\02_PP\01_WINDOWS\99_ASSIMP\LIB\ASSIMP-MASTER\TEST\UNIT\UTGENNORMALS.CPP
F:\WINDOWS 10\RTR\RTR_3\RTR2020_CLASS_ASSIGNMENT\01_OPENGL\02_PP\01_WINDOWS\99_ASSIMP\LIB\ASSIMP-MASTER\TEST\UNIT.DIR\DEBUG\VC143.PDB
^F:\WINDOWS 10\RTR\RTR_3\RTR2020_CLASS_ASSIGNMENT\01_OPENGL\02_PP\01_WINDOWS\99_ASSIMP\LIB\ASSIMP-MASTER\TEST\UNIT\UTTRIANGULATE.CPP
F:\WINDOWS 10\RTR\RTR_3\RTR2020_CLASS_ASSIGNMENT\01_OPENGL\02_PP\01_WINDOWS\99_ASSIMP\LIB\ASSIMP-MASTER\TEST\UNIT.DIR\DEBUG\VC143.PDB
^F:\WINDOWS 10\RTR\RTR_3\RTR2020_CLASS_ASSIGNMENT\01_OPENGL\02_PP\01_WINDOWS\99_ASSIMP\LIB\ASSIMP-MASTER\TEST\UNIT\UTTEXTURETRANSFORM.CPP
F:\WINDOWS 10\RTR\RTR_3\RTR2020_CLASS_ASSIGNMENT\01_OPENGL\02_PP\01_WINDOWS\99_ASSIMP\LIB\ASSIMP-MASTER\TEST\UNIT.DIR\DEBUG\VC143.PDB
^F:\WINDOWS 10\RTR\RTR_3\RTR2020_CLASS_ASSIGNMENT\01_OPENGL\02_PP\01_WINDOWS\99_ASSIMP\LIB\ASSIMP-MASTER\TEST\UNIT\UTREMOVEREDUNDANTMATERIALS.CPP
F:\WINDOWS 10\RTR\RTR_3\RTR2020_CLASS_ASSIGNMENT\01_OPENGL\02_PP\01_WINDOWS\99_ASSIMP\LIB\ASSIMP-MASTER\TEST\UNIT.DIR\DEBUG\VC143.PDB
^F:\WINDOWS 10\RTR\RTR_3\RTR2020_CLASS_ASSIGNMENT\01_OPENGL\02_PP\01_WINDOWS\99_ASSIMP\LIB\ASSIMP-MASTER\TEST\UNIT\UTREMOVEVCPROCESS.CPP
F:\WINDOWS 10\RTR\RTR_3\RTR2020_CLASS_ASSIGNMENT\01_OPENGL\02_PP\01_WINDOWS\99_ASSIMP\LIB\ASSIMP-MASTER\TEST\UNIT.DIR\DEBUG\VC143.PDB
^F:\WINDOWS 10\RTR\RTR_3\RTR2020_CLASS_ASSIGNMENT\01_OPENGL\02_PP\01_WINDOWS\99_ASSIMP\LIB\ASSIMP-MASTER\TEST\UNIT\UTSCALEPROCESS.CPP
F:\WINDOWS 10\RTR\RTR_3\RTR2020_CLASS_ASSIGNMENT\01_OPENGL\02_PP\01_WINDOWS\99_ASSIMP\LIB\ASSIMP-MASTER\TEST\UNIT.DIR\DEBUG\VC143.PDB
^F:\WINDOWS 10\RTR\RTR_3\RTR2020_CLASS_ASSIGNMENT\01_OPENGL\02_PP\01_WINDOWS\99_ASSIMP\LIB\ASSIMP-MASTER\TEST\UNIT\UTARMATUREPOPULATE.CPP
F:\WINDOWS 10\RTR\RTR_3\RTR2020_CLASS_ASSIGNMENT\01_OPENGL\02_PP\01_WINDOWS\99_ASSIMP\LIB\ASSIMP-MASTER\TEST\UNIT.DIR\DEBUG\VC143.PDB
^F:\WINDOWS 10\RTR\RTR_3\RTR2020_CLASS_ASSIGNMENT\01_OPENGL\02_PP\01_WINDOWS\99_ASSIMP\LIB\ASSIMP-MASTER\TEST\UNIT\UTJOINVERTICES.CPP
F:\WINDOWS 10\RTR\RTR_3\RTR2020_CLASS_ASSIGNMENT\01_OPENGL\02_PP\01_WINDOWS\99_ASSIMP\LIB\ASSIMP-MASTER\TEST\UNIT.DIR\DEBUG\VC143.PDB
^F:\WINDOWS 10\RTR\RTR_3\RTR2020_CLASS_ASSIGNMENT\01_OPENGL\02_PP\01_WINDOWS\99_ASSIMP\LIB\ASSIMP-MASTER\TEST\UNIT\UTREMOVECOMMENTS.CPP
F:\WINDOWS 10\RTR\RTR_3\RTR2020_CLASS_ASSIGNMENT\01_OPENGL\02_PP\01_WINDOWS\99_ASSIMP\LIB\ASSIMP-MASTER\TEST\UNIT.DIR\DEBUG\VC143.PDB
^F:\WINDOWS 10\RTR\RTR_3\RTR2020_CLASS_ASSIGNMENT\01_OPENGL\02_PP\01_WINDOWS\99_ASSIMP\LIB\ASSIMP-MASTER\TEST\UNIT\UTREMOVECOMPONENT.CPP
F:\WINDOWS 10\RTR\RTR_3\RTR2020_CLASS_ASSIGNMENT\01_OPENGL\02_PP\01_WINDOWS\99_ASSIMP\LIB\ASSIMP-MASTER\TEST\UNIT.DIR\DEBUG\VC143.PDB
^F:\WINDOWS 10\RTR\RTR_3\RTR2020_CLASS_ASSIGNMENT\01_OPENGL\02_PP\01_WINDOWS\99_ASSIMP\LIB\ASSIMP-MASTER\TEST\UNIT\UTVERTEXTRIANGLEADJACENCY.CPP
F:\WINDOWS 10\RTR\RTR_3\RTR2020_CLASS_ASSIGNMENT\01_OPENGL\02_PP\01_WINDOWS\99_ASSIMP\LIB\ASSIMP-MASTER\TEST\UNIT.DIR\DEBUG\VC143.PDB
^F:\WINDOWS 10\RTR\RTR_3\RTR2020_CLASS_ASSIGNMENT\01_OPENGL\02_PP\01_WINDOWS\99_ASSIMP\LIB\ASSIMP-MASTER\TEST\UNIT\UTSPLITLARGEMESHES.CPP
F:\WINDOWS 10\RTR\RTR_3\RTR2020_CLASS_ASSIGNMENT\01_OPENGL\02_PP\01_WINDOWS\99_ASSIMP\LIB\ASSIMP-MASTER\TEST\UNIT.DIR\DEBUG\VC143.PDB
^F:\WINDOWS 10\RTR\RTR_3\RTR2020_CLASS_ASSIGNMENT\01_OPENGL\02_PP\01_WINDOWS\99_ASSIMP\LIB\ASSIMP-MASTER\TEST\UNIT\UTFINDDEGENERATES.CPP
F:\WINDOWS 10\RTR\RTR_3\RTR2020_CLASS_ASSIGNMENT\01_OPENGL\02_PP\01_WINDOWS\99_ASSIMP\LIB\ASSIMP-MASTER\TEST\UNIT.DIR\DEBUG\VC143.PDB
^F:\WINDOWS 10\RTR\RTR_3\RTR2020_CLASS_ASSIGNMENT\01_OPENGL\02_PP\01_WINDOWS\99_ASSIMP\LIB\ASSIMP-MASTER\TEST\UNIT\UTFINDINVALIDDATA.CPP
F:\WINDOWS 10\RTR\RTR_3\RTR2020_CLASS_ASSIGNMENT\01_OPENGL\02_PP\01_WINDOWS\99_ASSIMP\LIB\ASSIMP-MASTER\TEST\UNIT.DIR\DEBUG\VC143.PDB
^F:\WINDOWS 10\RTR\RTR_3\RTR2020_CLASS_ASSIGNMENT\01_OPENGL\02_PP\01_WINDOWS\99_ASSIMP\LIB\ASSIMP-MASTER\TEST\UNIT\UTLIMITBONEWEIGHTS.CPP
F:\WINDOWS 10\RTR\RTR_3\RTR2020_CLASS_ASSIGNMENT\01_OPENGL\02_PP\01_WINDOWS\99_ASSIMP\LIB\ASSIMP-MASTER\TEST\UNIT.DIR\DEBUG\VC143.PDB
^F:\WINDOWS 10\RTR\RTR_3\RTR2020_CLASS_ASSIGNMENT\01_OPENGL\02_PP\01_WINDOWS\99_ASSIMP\LIB\ASSIMP-MASTER\TEST\UNIT\UTPRETRANSFORMVERTICES.CPP
F:\WINDOWS 10\RTR\RTR_3\RTR2020_CLASS_ASSIGNMENT\01_OPENGL\02_PP\01_WINDOWS\99_ASSIMP\LIB\ASSIMP-MASTER\TEST\UNIT.DIR\DEBUG\VC143.PDB
^F:\WINDOWS 10\RTR\RTR_3\RTR2020_CLASS_ASSIGNMENT\01_OPENGL\02_PP\01_WINDOWS\99_ASSIMP\LIB\ASSIMP-MASTER\TEST\UNIT\UTSCENEPREPROCESSOR.CPP
F:\WINDOWS 10\RTR\RTR_3\RTR2020_CLASS_ASSIGNMENT\01_OPENGL\02_PP\01_WINDOWS\99_ASSIMP\LIB\ASSIMP-MASTER\TEST\UNIT.DIR\DEBUG\VC143.PDB
^F:\WINDOWS 10\RTR\RTR_3\RTR2020_CLASS_ASSIGNMENT\01_OPENGL\02_PP\01_WINDOWS\99_ASSIMP\LIB\ASSIMP-MASTER\TEST\UNIT\UTTARGETANIMATION.CPP
F:\WINDOWS 10\RTR\RTR_3\RTR2020_CLASS_ASSIGNMENT\01_OPENGL\02_PP\01_WINDOWS\99_ASSIMP\LIB\ASSIMP-MASTER\TEST\UNIT.DIR\DEBUG\VC143.PDB
^F:\WINDOWS 10\RTR\RTR_3\RTR2020_CLASS_ASSIGNMENT\01_OPENGL\02_PP\01_WINDOWS\99_ASSIMP\LIB\ASSIMP-MASTER\TEST\UNIT\UTSORTBYPTYPE.CPP
F:\WINDOWS 10\RTR\RTR_3\RTR2020_CLASS_ASSIGNMENT\01_OPENGL\02_PP\01_WINDOWS\99_ASSIMP\LIB\ASSIMP-MASTER\TEST\UNIT.DIR\DEBUG\VC143.PDB
^F:\WINDOWS 10\RTR\RTR_3\RTR2020_CLASS_ASSIGNMENT\01_OPENGL\02_PP\01_WINDOWS\99_ASSIMP\LIB\ASSIMP-MASTER\TEST\UNIT\UTSCENECOMBINER.CPP
F:\WINDOWS 10\RTR\RTR_3\RTR2020_CLASS_ASSIGNMENT\01_OPENGL\02_PP\01_WINDOWS\99_ASSIMP\LIB\ASSIMP-MASTER\TEST\UNIT.DIR\DEBUG\VC143.PDB
^F:\WINDOWS 10\RTR\RTR_3\RTR2020_CLASS_ASSIGNMENT\01_OPENGL\02_PP\01_WINDOWS\99_ASSIMP\LIB\ASSIMP-MASTER\TEST\UNIT\UTGENBOUNDINGBOXESPROCESS.CPP
F:\WINDOWS 10\RTR\RTR_3\RTR2020_CLASS_ASSIGNMENT\01_OPENGL\02_PP\01_WINDOWS\99_ASSIMP\LIB\ASSIMP-MASTER\TEST\UNIT.DIR\DEBUG\VC143.PDB
^F:\WINDOWS 10\RTR\RTR_3\RTR2020_CLASS_ASSIGNMENT\01_OPENGL\02_PP\01_WINDOWS\99_ASSIMP\LIB\ASSIMP-MASTER\CONTRIB\GTEST\SRC\GTEST-ALL.CC
F:\WINDOWS 10\RTR\RTR_3\RTR2020_CLASS_ASSIGNMENT\01_OPENGL\02_PP\01_WINDOWS\99_ASSIMP\LIB\ASSIMP-MASTER\TEST\UNIT.DIR\DEBUG\VC143.PDB
