^F:\WINDOWS 10\RTR\RTR_3\RTR2020_CLASS_ASSIGNMENT\01_OPENGL\02_PP\01_WINDOWS\99_ASSIMP\LIB\ASSIMP-MASTER\CMAKEFILES\3.23.2\COMPILERIDCXX\CMAKECXXCOMPILERID.CPP
C:\WINDOWS\GLOBALIZATION\SORTING\SORTDEFAULT.NLS
C:\PROGRAM FILES\MICROSOFT VISUAL STUDIO\2022\COMMUNITY\VC\TOOLS\MSVC\14.32.31326\BIN\HOSTX64\X64\1033\CLUI.DLL
C:\WINDOWS\SYSTEM32\TZRES.DLL
